<?xml version="1.0" encoding="utf-8"?>
<!DOCTYPE eagle SYSTEM "eagle.dtd">
<eagle version="9.5.2">
<drawing>
<settings>
<setting alwaysvectorfont="no"/>
<setting verticaltext="up"/>
</settings>
<grid distance="50" unitdist="mil" unit="mil" style="lines" multiple="1" display="no" altdistance="5" altunitdist="mil" altunit="mil"/>
<layers>
<layer number="1" name="Top" color="4" fill="1" visible="yes" active="yes"/>
<layer number="16" name="Bottom" color="1" fill="1" visible="yes" active="yes"/>
<layer number="17" name="Pads" color="2" fill="1" visible="yes" active="yes"/>
<layer number="18" name="Vias" color="2" fill="1" visible="yes" active="yes"/>
<layer number="19" name="Unrouted" color="6" fill="1" visible="yes" active="yes"/>
<layer number="20" name="Dimension" color="24" fill="1" visible="yes" active="yes"/>
<layer number="21" name="tPlace" color="7" fill="1" visible="yes" active="yes"/>
<layer number="22" name="bPlace" color="7" fill="1" visible="yes" active="yes"/>
<layer number="23" name="tOrigins" color="15" fill="1" visible="yes" active="yes"/>
<layer number="24" name="bOrigins" color="15" fill="1" visible="yes" active="yes"/>
<layer number="25" name="tNames" color="7" fill="1" visible="yes" active="yes"/>
<layer number="26" name="bNames" color="7" fill="1" visible="yes" active="yes"/>
<layer number="27" name="tValues" color="7" fill="1" visible="yes" active="yes"/>
<layer number="28" name="bValues" color="7" fill="1" visible="yes" active="yes"/>
<layer number="29" name="tStop" color="7" fill="3" visible="no" active="yes"/>
<layer number="30" name="bStop" color="7" fill="6" visible="no" active="yes"/>
<layer number="31" name="tCream" color="7" fill="4" visible="no" active="yes"/>
<layer number="32" name="bCream" color="7" fill="5" visible="no" active="yes"/>
<layer number="33" name="tFinish" color="6" fill="3" visible="no" active="yes"/>
<layer number="34" name="bFinish" color="6" fill="6" visible="no" active="yes"/>
<layer number="35" name="tGlue" color="7" fill="4" visible="no" active="yes"/>
<layer number="36" name="bGlue" color="7" fill="5" visible="no" active="yes"/>
<layer number="37" name="tTest" color="7" fill="1" visible="no" active="yes"/>
<layer number="38" name="bTest" color="7" fill="1" visible="no" active="yes"/>
<layer number="39" name="tKeepout" color="4" fill="11" visible="yes" active="yes"/>
<layer number="40" name="bKeepout" color="1" fill="11" visible="yes" active="yes"/>
<layer number="41" name="tRestrict" color="4" fill="10" visible="yes" active="yes"/>
<layer number="42" name="bRestrict" color="1" fill="10" visible="yes" active="yes"/>
<layer number="43" name="vRestrict" color="2" fill="10" visible="yes" active="yes"/>
<layer number="44" name="Drills" color="7" fill="1" visible="no" active="yes"/>
<layer number="45" name="Holes" color="7" fill="1" visible="no" active="yes"/>
<layer number="46" name="Milling" color="3" fill="1" visible="no" active="yes"/>
<layer number="47" name="Measures" color="7" fill="1" visible="no" active="yes"/>
<layer number="48" name="Document" color="7" fill="1" visible="yes" active="yes"/>
<layer number="49" name="Reference" color="7" fill="1" visible="yes" active="yes"/>
<layer number="50" name="dxf" color="7" fill="1" visible="no" active="no"/>
<layer number="51" name="tDocu" color="7" fill="1" visible="yes" active="yes"/>
<layer number="52" name="bDocu" color="7" fill="1" visible="yes" active="yes"/>
<layer number="53" name="tGND_GNDA" color="7" fill="9" visible="no" active="no"/>
<layer number="54" name="bGND_GNDA" color="1" fill="9" visible="no" active="no"/>
<layer number="56" name="wert" color="7" fill="1" visible="no" active="no"/>
<layer number="57" name="tCAD" color="7" fill="1" visible="no" active="no"/>
<layer number="59" name="tCarbon" color="7" fill="1" visible="no" active="no"/>
<layer number="60" name="bCarbon" color="7" fill="1" visible="no" active="no"/>
<layer number="88" name="SimResults" color="9" fill="1" visible="no" active="no"/>
<layer number="89" name="SimProbes" color="9" fill="1" visible="no" active="no"/>
<layer number="90" name="Modules" color="5" fill="1" visible="no" active="no"/>
<layer number="91" name="Nets" color="2" fill="1" visible="no" active="no"/>
<layer number="92" name="Busses" color="1" fill="1" visible="no" active="no"/>
<layer number="93" name="Pins" color="2" fill="1" visible="no" active="no"/>
<layer number="94" name="Symbols" color="4" fill="1" visible="no" active="no"/>
<layer number="95" name="Names" color="7" fill="1" visible="no" active="no"/>
<layer number="96" name="Values" color="7" fill="1" visible="no" active="no"/>
<layer number="97" name="Info" color="7" fill="1" visible="no" active="no"/>
<layer number="98" name="Guide" color="6" fill="1" visible="no" active="no"/>
<layer number="99" name="SpiceOrder" color="7" fill="1" visible="no" active="no"/>
<layer number="100" name="Muster" color="7" fill="1" visible="no" active="no"/>
<layer number="101" name="Patch_Top" color="12" fill="4" visible="yes" active="yes"/>
<layer number="102" name="Vscore" color="7" fill="1" visible="yes" active="yes"/>
<layer number="103" name="tMap" color="7" fill="1" visible="yes" active="yes"/>
<layer number="104" name="Name" color="16" fill="1" visible="yes" active="yes"/>
<layer number="105" name="tPlate" color="7" fill="1" visible="yes" active="yes"/>
<layer number="106" name="bPlate" color="7" fill="1" visible="yes" active="yes"/>
<layer number="107" name="Crop" color="7" fill="1" visible="yes" active="yes"/>
<layer number="108" name="tplace-old" color="10" fill="1" visible="yes" active="yes"/>
<layer number="109" name="ref-old" color="11" fill="1" visible="yes" active="yes"/>
<layer number="110" name="fp0" color="7" fill="1" visible="yes" active="yes"/>
<layer number="111" name="LPC17xx" color="7" fill="1" visible="yes" active="yes"/>
<layer number="112" name="tSilk" color="7" fill="1" visible="yes" active="yes"/>
<layer number="113" name="IDFDebug" color="7" fill="1" visible="yes" active="yes"/>
<layer number="114" name="Badge_Outline" color="7" fill="1" visible="yes" active="yes"/>
<layer number="115" name="ReferenceISLANDS" color="7" fill="1" visible="yes" active="yes"/>
<layer number="116" name="Patch_BOT" color="9" fill="4" visible="yes" active="yes"/>
<layer number="118" name="Rect_Pads" color="7" fill="1" visible="yes" active="yes"/>
<layer number="121" name="_tsilk" color="7" fill="1" visible="yes" active="yes"/>
<layer number="122" name="_bsilk" color="7" fill="1" visible="yes" active="yes"/>
<layer number="123" name="tTestmark" color="7" fill="1" visible="yes" active="yes"/>
<layer number="124" name="bTestmark" color="7" fill="1" visible="yes" active="yes"/>
<layer number="125" name="_tNames" color="7" fill="1" visible="yes" active="yes"/>
<layer number="126" name="_bNames" color="7" fill="1" visible="yes" active="yes"/>
<layer number="127" name="_tValues" color="7" fill="1" visible="yes" active="yes"/>
<layer number="128" name="_bValues" color="7" fill="1" visible="yes" active="yes"/>
<layer number="129" name="Mask" color="7" fill="1" visible="yes" active="yes"/>
<layer number="131" name="tAdjust" color="7" fill="1" visible="yes" active="yes"/>
<layer number="132" name="bAdjust" color="7" fill="1" visible="yes" active="yes"/>
<layer number="144" name="Drill_legend" color="7" fill="1" visible="yes" active="yes"/>
<layer number="150" name="Notes" color="7" fill="1" visible="yes" active="yes"/>
<layer number="151" name="HeatSink" color="7" fill="1" visible="yes" active="yes"/>
<layer number="152" name="_bDocu" color="7" fill="1" visible="yes" active="yes"/>
<layer number="153" name="FabDoc1" color="7" fill="1" visible="yes" active="yes"/>
<layer number="154" name="FabDoc2" color="7" fill="1" visible="yes" active="yes"/>
<layer number="155" name="FabDoc3" color="7" fill="1" visible="yes" active="yes"/>
<layer number="199" name="Contour" color="7" fill="1" visible="yes" active="yes"/>
<layer number="200" name="200bmp" color="1" fill="10" visible="yes" active="yes"/>
<layer number="201" name="201bmp" color="2" fill="10" visible="yes" active="yes"/>
<layer number="202" name="202bmp" color="3" fill="10" visible="yes" active="yes"/>
<layer number="203" name="203bmp" color="4" fill="10" visible="yes" active="yes"/>
<layer number="204" name="204bmp" color="5" fill="10" visible="yes" active="yes"/>
<layer number="205" name="205bmp" color="6" fill="10" visible="yes" active="yes"/>
<layer number="206" name="206bmp" color="7" fill="10" visible="yes" active="yes"/>
<layer number="207" name="207bmp" color="8" fill="10" visible="yes" active="yes"/>
<layer number="208" name="208bmp" color="9" fill="10" visible="yes" active="yes"/>
<layer number="209" name="209bmp" color="7" fill="1" visible="yes" active="yes"/>
<layer number="210" name="210bmp" color="7" fill="1" visible="yes" active="yes"/>
<layer number="211" name="211bmp" color="7" fill="1" visible="yes" active="yes"/>
<layer number="212" name="212bmp" color="7" fill="1" visible="yes" active="yes"/>
<layer number="213" name="213bmp" color="7" fill="1" visible="yes" active="yes"/>
<layer number="214" name="214bmp" color="7" fill="1" visible="yes" active="yes"/>
<layer number="215" name="215bmp" color="7" fill="1" visible="yes" active="yes"/>
<layer number="216" name="216bmp" color="7" fill="1" visible="yes" active="yes"/>
<layer number="217" name="217bmp" color="18" fill="1" visible="no" active="no"/>
<layer number="218" name="218bmp" color="19" fill="1" visible="no" active="no"/>
<layer number="219" name="219bmp" color="20" fill="1" visible="no" active="no"/>
<layer number="220" name="220bmp" color="21" fill="1" visible="no" active="no"/>
<layer number="221" name="221bmp" color="22" fill="1" visible="no" active="no"/>
<layer number="222" name="222bmp" color="23" fill="1" visible="no" active="no"/>
<layer number="223" name="223bmp" color="24" fill="1" visible="no" active="no"/>
<layer number="224" name="224bmp" color="25" fill="1" visible="no" active="no"/>
<layer number="225" name="225bmp" color="7" fill="1" visible="yes" active="yes"/>
<layer number="226" name="226bmp" color="7" fill="1" visible="yes" active="yes"/>
<layer number="227" name="227bmp" color="7" fill="1" visible="yes" active="yes"/>
<layer number="228" name="228bmp" color="7" fill="1" visible="yes" active="yes"/>
<layer number="229" name="229bmp" color="7" fill="1" visible="yes" active="yes"/>
<layer number="230" name="230bmp" color="7" fill="1" visible="yes" active="yes"/>
<layer number="231" name="231bmp" color="7" fill="1" visible="yes" active="yes"/>
<layer number="232" name="Eagle3D_PG2" color="7" fill="1" visible="yes" active="yes"/>
<layer number="233" name="Eagle3D_PG3" color="7" fill="1" visible="yes" active="yes"/>
<layer number="248" name="Housing" color="7" fill="1" visible="yes" active="yes"/>
<layer number="249" name="Edge" color="7" fill="1" visible="yes" active="yes"/>
<layer number="250" name="Descript" color="3" fill="1" visible="no" active="no"/>
<layer number="251" name="SMDround" color="12" fill="11" visible="no" active="no"/>
<layer number="254" name="cooling" color="7" fill="1" visible="yes" active="yes"/>
<layer number="255" name="routoute" color="7" fill="1" visible="yes" active="yes"/>
</layers>
<board>
<plain>
<wire x1="0" y1="0" x2="100" y2="0" width="0" layer="20"/>
<wire x1="100" y1="0" x2="100" y2="80" width="0" layer="20"/>
<wire x1="100" y1="80" x2="0" y2="80" width="0" layer="20"/>
<wire x1="0" y1="80" x2="0" y2="0" width="0" layer="20"/>
</plain>
<libraries>
<library name="pinhead" urn="urn:adsk.eagle:library:325">
<description>&lt;b&gt;Pin Header Connectors&lt;/b&gt;&lt;p&gt;
&lt;author&gt;Created by librarian@cadsoft.de&lt;/author&gt;</description>
<packages>
<package name="1X02" urn="urn:adsk.eagle:footprint:22309/1" library_version="4">
<description>&lt;b&gt;PIN HEADER&lt;/b&gt;</description>
<wire x1="-1.905" y1="1.27" x2="-0.635" y2="1.27" width="0.1524" layer="21"/>
<wire x1="-0.635" y1="1.27" x2="0" y2="0.635" width="0.1524" layer="21"/>
<wire x1="0" y1="0.635" x2="0" y2="-0.635" width="0.1524" layer="21"/>
<wire x1="0" y1="-0.635" x2="-0.635" y2="-1.27" width="0.1524" layer="21"/>
<wire x1="-2.54" y1="0.635" x2="-2.54" y2="-0.635" width="0.1524" layer="21"/>
<wire x1="-1.905" y1="1.27" x2="-2.54" y2="0.635" width="0.1524" layer="21"/>
<wire x1="-2.54" y1="-0.635" x2="-1.905" y2="-1.27" width="0.1524" layer="21"/>
<wire x1="-0.635" y1="-1.27" x2="-1.905" y2="-1.27" width="0.1524" layer="21"/>
<wire x1="0" y1="0.635" x2="0.635" y2="1.27" width="0.1524" layer="21"/>
<wire x1="0.635" y1="1.27" x2="1.905" y2="1.27" width="0.1524" layer="21"/>
<wire x1="1.905" y1="1.27" x2="2.54" y2="0.635" width="0.1524" layer="21"/>
<wire x1="2.54" y1="0.635" x2="2.54" y2="-0.635" width="0.1524" layer="21"/>
<wire x1="2.54" y1="-0.635" x2="1.905" y2="-1.27" width="0.1524" layer="21"/>
<wire x1="1.905" y1="-1.27" x2="0.635" y2="-1.27" width="0.1524" layer="21"/>
<wire x1="0.635" y1="-1.27" x2="0" y2="-0.635" width="0.1524" layer="21"/>
<pad name="1" x="-1.27" y="0" drill="1.016" shape="long" rot="R90"/>
<pad name="2" x="1.27" y="0" drill="1.016" shape="long" rot="R90"/>
<text x="-2.6162" y="1.8288" size="1.27" layer="25" ratio="10">&gt;NAME</text>
<text x="-2.54" y="-3.175" size="1.27" layer="27">&gt;VALUE</text>
<rectangle x1="-1.524" y1="-0.254" x2="-1.016" y2="0.254" layer="51"/>
<rectangle x1="1.016" y1="-0.254" x2="1.524" y2="0.254" layer="51"/>
</package>
</packages>
<packages3d>
<package3d name="1X02" urn="urn:adsk.eagle:package:22435/2" type="model" library_version="4">
<description>PIN HEADER</description>
<packageinstances>
<packageinstance name="1X02"/>
</packageinstances>
</package3d>
</packages3d>
</library>
<library name="resistor" urn="urn:adsk.eagle:library:348">
<description>&lt;b&gt;Resistors, Capacitors, Inductors&lt;/b&gt;&lt;p&gt;
Based on the previous libraries:
&lt;ul&gt;
&lt;li&gt;r.lbr
&lt;li&gt;cap.lbr 
&lt;li&gt;cap-fe.lbr
&lt;li&gt;captant.lbr
&lt;li&gt;polcap.lbr
&lt;li&gt;ipc-smd.lbr
&lt;/ul&gt;
All SMD packages are defined according to the IPC specifications and  CECC&lt;p&gt;
&lt;author&gt;Created by librarian@cadsoft.de&lt;/author&gt;&lt;p&gt;
&lt;p&gt;
for Electrolyt Capacitors see also :&lt;p&gt;
www.bccomponents.com &lt;p&gt;
www.panasonic.com&lt;p&gt;
www.kemet.com&lt;p&gt;
&lt;p&gt;
for trimmer refence see : &lt;u&gt;www.electrospec-inc.com/cross_references/trimpotcrossref.asp&lt;/u&gt;&lt;p&gt;

&lt;map name="nav_main"&gt;
&lt;area shape="rect" coords="0,1,140,23" href="../military_specs.asp" title=""&gt;
&lt;area shape="rect" coords="0,24,140,51" href="../about.asp" title=""&gt;
&lt;area shape="rect" coords="1,52,140,77" href="../rfq.asp" title=""&gt;
&lt;area shape="rect" coords="0,78,139,103" href="../products.asp" title=""&gt;
&lt;area shape="rect" coords="1,102,138,128" href="../excess_inventory.asp" title=""&gt;
&lt;area shape="rect" coords="1,129,138,150" href="../edge.asp" title=""&gt;
&lt;area shape="rect" coords="1,151,139,178" href="../industry_links.asp" title=""&gt;
&lt;area shape="rect" coords="0,179,139,201" href="../comments.asp" title=""&gt;
&lt;area shape="rect" coords="1,203,138,231" href="../directory.asp" title=""&gt;
&lt;area shape="default" nohref&gt;
&lt;/map&gt;

&lt;html&gt;

&lt;title&gt;&lt;/title&gt;

 &lt;LINK REL="StyleSheet" TYPE="text/css" HREF="style-sheet.css"&gt;

&lt;body bgcolor="#ffffff" text="#000000" marginwidth="0" marginheight="0" topmargin="0" leftmargin="0"&gt;
&lt;table border=0 cellspacing=0 cellpadding=0 width="100%" cellpaddding=0 height="55%"&gt;
&lt;tr valign="top"&gt;

&lt;/td&gt;
&lt;! &lt;td width="10"&gt;&amp;nbsp;&lt;/td&gt;
&lt;td width="90%"&gt;

&lt;b&gt;&lt;font color="#0000FF" size="4"&gt;TRIM-POT CROSS REFERENCE&lt;/font&gt;&lt;/b&gt;
&lt;P&gt;
&lt;TABLE BORDER=0 CELLSPACING=1 CELLPADDING=2&gt;
  &lt;TR&gt;
    &lt;TD COLSPAN=8&gt;
      &lt;FONT SIZE=3 FACE=ARIAL&gt;&lt;B&gt;RECTANGULAR MULTI-TURN&lt;/B&gt;&lt;/FONT&gt;
    &lt;/TD&gt;
  &lt;/TR&gt;
  &lt;TR&gt;
    &lt;TD ALIGN=CENTER&gt;
      &lt;B&gt;
      &lt;FONT SIZE=3 FACE=ARIAL color="#FF0000"&gt;BOURNS&lt;/FONT&gt;
      &lt;/B&gt;
    &lt;/TD&gt;
    &lt;TD ALIGN=CENTER&gt;
      &lt;B&gt;
      &lt;FONT SIZE=3 FACE=ARIAL color="#FF0000"&gt;BI&amp;nbsp;TECH&lt;/FONT&gt;
      &lt;/B&gt;
    &lt;/TD&gt;
    &lt;TD ALIGN=CENTER&gt;
      &lt;B&gt;
      &lt;FONT SIZE=3 FACE=ARIAL color="#FF0000"&gt;DALE-VISHAY&lt;/FONT&gt;
      &lt;/B&gt;
    &lt;/TD&gt;
    &lt;TD ALIGN=CENTER&gt;
      &lt;B&gt;
      &lt;FONT SIZE=3 FACE=ARIAL color="#FF0000"&gt;PHILIPS/MEPCO&lt;/FONT&gt;
      &lt;/B&gt;
    &lt;/TD&gt;
    &lt;TD ALIGN=CENTER&gt;
      &lt;B&gt;
      &lt;FONT SIZE=3 FACE=ARIAL color="#FF0000"&gt;MURATA&lt;/FONT&gt;
      &lt;/B&gt;
    &lt;/TD&gt;
    &lt;TD ALIGN=CENTER&gt;
      &lt;B&gt;
      &lt;FONT SIZE=3 FACE=ARIAL color="#FF0000"&gt;PANASONIC&lt;/FONT&gt;
      &lt;/B&gt;
    &lt;/TD&gt;
    &lt;TD ALIGN=CENTER&gt;
      &lt;B&gt;
      &lt;FONT SIZE=3 FACE=ARIAL color="#FF0000"&gt;SPECTROL&lt;/FONT&gt;
      &lt;/B&gt;
    &lt;/TD&gt;
    &lt;TD ALIGN=CENTER&gt;
      &lt;B&gt;
      &lt;FONT SIZE=3 FACE=ARIAL color="#FF0000"&gt;MILSPEC&lt;/FONT&gt;
      &lt;/B&gt;
    &lt;/TD&gt;&lt;TD&gt;&amp;nbsp;&lt;/TD&gt;
  &lt;/TR&gt;
  &lt;TR&gt;
    &lt;TD BGCOLOR="#cccccc" ALIGN=CENTER&gt;&lt;FONT FACE=ARIAL SIZE=3 &gt;
      3005P&lt;BR&gt;
      3006P&lt;BR&gt;
      3006W&lt;BR&gt;
      3006Y&lt;BR&gt;
      3009P&lt;BR&gt;
      3009W&lt;BR&gt;
      3009Y&lt;BR&gt;
      3057J&lt;BR&gt;
      3057L&lt;BR&gt;
      3057P&lt;BR&gt;
      3057Y&lt;BR&gt;
      3059J&lt;BR&gt;
      3059L&lt;BR&gt;
      3059P&lt;BR&gt;
      3059Y&lt;BR&gt;&lt;/FONT&gt;
    &lt;/TD&gt;
    &lt;TD BGCOLOR="#cccccc" ALIGN=CENTER&gt;&lt;FONT FACE=ARIAL SIZE=3&gt;
      -&lt;BR&gt;
      89P&lt;BR&gt;
      89W&lt;BR&gt;
      89X&lt;BR&gt;
      89PH&lt;BR&gt;
      76P&lt;BR&gt;
      89XH&lt;BR&gt;
      78SLT&lt;BR&gt;
      78L&amp;nbsp;ALT&lt;BR&gt;
      56P&amp;nbsp;ALT&lt;BR&gt;
      78P&amp;nbsp;ALT&lt;BR&gt;
      T8S&lt;BR&gt;
      78L&lt;BR&gt;
      56P&lt;BR&gt;
      78P&lt;BR&gt;&lt;/FONT&gt;
    &lt;/TD&gt;
    &lt;TD BGCOLOR="#cccccc" ALIGN=CENTER&gt;&lt;FONT FACE=ARIAL SIZE=3&gt;
      -&lt;BR&gt;
      T18/784&lt;BR&gt;
      783&lt;BR&gt;
      781&lt;BR&gt;
      -&lt;BR&gt;
      -&lt;BR&gt;
      -&lt;BR&gt;
      2199&lt;BR&gt;
      1697/1897&lt;BR&gt;
      1680/1880&lt;BR&gt;
      2187&lt;BR&gt;
      -&lt;BR&gt;
      -&lt;BR&gt;
      -&lt;BR&gt;
      -&lt;BR&gt;&lt;/FONT&gt;
    &lt;/TD&gt;
    &lt;TD BGCOLOR="#cccccc" ALIGN=CENTER&gt;&lt;FONT FACE=ARIAL SIZE=3&gt;
      -&lt;BR&gt;
      8035EKP/CT20/RJ-20P&lt;BR&gt;
      -&lt;BR&gt;
      RJ-20X&lt;BR&gt;
      -&lt;BR&gt;
      -&lt;BR&gt;
      -&lt;BR&gt;
      1211L&lt;BR&gt;
      8012EKQ&amp;nbsp;ALT&lt;BR&gt;
      8012EKR&amp;nbsp;ALT&lt;BR&gt;
      1211P&lt;BR&gt;
      8012EKJ&lt;BR&gt;
      8012EKL&lt;BR&gt;
      8012EKQ&lt;BR&gt;
      8012EKR&lt;BR&gt;&lt;/FONT&gt;
    &lt;/TD&gt;
    &lt;TD BGCOLOR="#cccccc" ALIGN=CENTER&gt;&lt;FONT FACE=ARIAL SIZE=3&gt;
      -&lt;BR&gt;
      2101P&lt;BR&gt;
      2101W&lt;BR&gt;
      2101Y&lt;BR&gt;
      -&lt;BR&gt;
      -&lt;BR&gt;
      -&lt;BR&gt;
      -&lt;BR&gt;
      -&lt;BR&gt;
      -&lt;BR&gt;
      -&lt;BR&gt;
      -&lt;BR&gt;
      2102L&lt;BR&gt;
      2102S&lt;BR&gt;
      2102Y&lt;BR&gt;&lt;/FONT&gt;
    &lt;/TD&gt;
    &lt;TD BGCOLOR="#cccccc" ALIGN=CENTER&gt;&lt;FONT FACE=ARIAL SIZE=3&gt;
      -&lt;BR&gt;
      EVMCOG&lt;BR&gt;
      -&lt;BR&gt;
      -&lt;BR&gt;
      -&lt;BR&gt;
      -&lt;BR&gt;
      -&lt;BR&gt;
      -&lt;BR&gt;
      -&lt;BR&gt;
      -&lt;BR&gt;
      -&lt;BR&gt;
      -&lt;BR&gt;
      -&lt;BR&gt;
      -&lt;BR&gt;
      -&lt;BR&gt;&lt;/FONT&gt;
    &lt;/TD&gt;
    &lt;TD BGCOLOR="#cccccc" ALIGN=CENTER&gt;&lt;FONT FACE=ARIAL SIZE=3&gt;
      -&lt;BR&gt;
      43P&lt;BR&gt;
      43W&lt;BR&gt;
      43Y&lt;BR&gt;
      -&lt;BR&gt;
      -&lt;BR&gt;
      -&lt;BR&gt;
      -&lt;BR&gt;
      40L&lt;BR&gt;
      40P&lt;BR&gt;
      40Y&lt;BR&gt;
      70Y-T602&lt;BR&gt;
      70L&lt;BR&gt;
      70P&lt;BR&gt;
      70Y&lt;BR&gt;&lt;/FONT&gt;
    &lt;/TD&gt;
    &lt;TD BGCOLOR="#cccccc" ALIGN=CENTER&gt;&lt;FONT FACE=ARIAL SIZE=3&gt;
      -&lt;BR&gt;
      -&lt;BR&gt;
      -&lt;BR&gt;
      -&lt;BR&gt;
      -&lt;BR&gt;
      -&lt;BR&gt;
      -&lt;BR&gt;
      -&lt;BR&gt;
      RT/RTR12&lt;BR&gt;
      RT/RTR12&lt;BR&gt;
      RT/RTR12&lt;BR&gt;
      -&lt;BR&gt;
      RJ/RJR12&lt;BR&gt;
      RJ/RJR12&lt;BR&gt;
      RJ/RJR12&lt;BR&gt;&lt;/FONT&gt;
    &lt;/TD&gt;
  &lt;/TR&gt;
  &lt;TR&gt;
    &lt;TD COLSPAN=8&gt;&amp;nbsp;
    &lt;/TD&gt;
  &lt;/TR&gt;
  &lt;TR&gt;
    &lt;TD COLSPAN=8&gt;
      &lt;FONT SIZE=4 FACE=ARIAL&gt;&lt;B&gt;SQUARE MULTI-TURN&lt;/B&gt;&lt;/FONT&gt;
    &lt;/TD&gt;
  &lt;/TR&gt;
  &lt;TR&gt;
   &lt;TD ALIGN=CENTER&gt;
      &lt;FONT SIZE=3 FACE=ARIAL&gt;&lt;B&gt;BOURN&lt;/B&gt;&lt;/FONT&gt;
    &lt;/TD&gt;
    &lt;TD ALIGN=CENTER&gt;
      &lt;FONT SIZE=3 FACE=ARIAL&gt;&lt;B&gt;BI&amp;nbsp;TECH&lt;/B&gt;&lt;/FONT&gt;
    &lt;/TD&gt;
    &lt;TD ALIGN=CENTER&gt;
      &lt;FONT SIZE=3 FACE=ARIAL&gt;&lt;B&gt;DALE-VISHAY&lt;/B&gt;&lt;/FONT&gt;
    &lt;/TD&gt;
    &lt;TD ALIGN=CENTER&gt;
      &lt;FONT SIZE=3 FACE=ARIAL&gt;&lt;B&gt;PHILIPS/MEPCO&lt;/B&gt;&lt;/FONT&gt;
    &lt;/TD&gt;
    &lt;TD ALIGN=CENTER&gt;
      &lt;FONT SIZE=3 FACE=ARIAL&gt;&lt;B&gt;MURATA&lt;/B&gt;&lt;/FONT&gt;
    &lt;/TD&gt;
    &lt;TD ALIGN=CENTER&gt;
      &lt;FONT SIZE=3 FACE=ARIAL&gt;&lt;B&gt;PANASONIC&lt;/B&gt;&lt;/FONT&gt;
    &lt;/TD&gt;
    &lt;TD ALIGN=CENTER&gt;
      &lt;FONT SIZE=3 FACE=ARIAL&gt;&lt;B&gt;SPECTROL&lt;/B&gt;&lt;/FONT&gt;
    &lt;/TD&gt;
    &lt;TD ALIGN=CENTER&gt;
      &lt;FONT SIZE=3 FACE=ARIAL&gt;&lt;B&gt;MILSPEC&lt;/B&gt;&lt;/FONT&gt;
    &lt;/TD&gt;
  &lt;/TR&gt;
  &lt;TR&gt;
    &lt;TD BGCOLOR="#cccccc" ALIGN=CENTER&gt;&lt;FONT FACE=ARIAL SIZE=3&gt;
      3250L&lt;BR&gt;
      3250P&lt;BR&gt;
      3250W&lt;BR&gt;
      3250X&lt;BR&gt;
      3252P&lt;BR&gt;
      3252W&lt;BR&gt;
      3252X&lt;BR&gt;
      3260P&lt;BR&gt;
      3260W&lt;BR&gt;
      3260X&lt;BR&gt;
      3262P&lt;BR&gt;
      3262W&lt;BR&gt;
      3262X&lt;BR&gt;
      3266P&lt;BR&gt;
      3266W&lt;BR&gt;
      3266X&lt;BR&gt;
      3290H&lt;BR&gt;
      3290P&lt;BR&gt;
      3290W&lt;BR&gt;
      3292P&lt;BR&gt;
      3292W&lt;BR&gt;
      3292X&lt;BR&gt;
      3296P&lt;BR&gt;
      3296W&lt;BR&gt;
      3296X&lt;BR&gt;
      3296Y&lt;BR&gt;
      3296Z&lt;BR&gt;
      3299P&lt;BR&gt;
      3299W&lt;BR&gt;
      3299X&lt;BR&gt;
      3299Y&lt;BR&gt;
      3299Z&lt;BR&gt;&lt;/FONT&gt;
    &lt;/TD&gt;
    &lt;TD BGCOLOR="#cccccc" ALIGN=CENTER&gt;&lt;FONT FACE=ARIAL SIZE=3&gt;
      -&lt;BR&gt;
      66P&amp;nbsp;ALT&lt;BR&gt;
      66W&amp;nbsp;ALT&lt;BR&gt;
      66X&amp;nbsp;ALT&lt;BR&gt;
      66P&amp;nbsp;ALT&lt;BR&gt;
      66W&amp;nbsp;ALT&lt;BR&gt;
      66X&amp;nbsp;ALT&lt;BR&gt;
      -&lt;BR&gt;
      64W&amp;nbsp;ALT&lt;BR&gt;
      -&lt;BR&gt;
      64P&amp;nbsp;ALT&lt;BR&gt;
      64W&amp;nbsp;ALT&lt;BR&gt;
      64X&amp;nbsp;ALT&lt;BR&gt;
      64P&lt;BR&gt;
      64W&lt;BR&gt;
      64X&lt;BR&gt;
      66X&amp;nbsp;ALT&lt;BR&gt;
      66P&amp;nbsp;ALT&lt;BR&gt;
      66W&amp;nbsp;ALT&lt;BR&gt;
      66P&lt;BR&gt;
      66W&lt;BR&gt;
      66X&lt;BR&gt;
      67P&lt;BR&gt;
      67W&lt;BR&gt;
      67X&lt;BR&gt;
      67Y&lt;BR&gt;
      67Z&lt;BR&gt;
      68P&lt;BR&gt;
      68W&lt;BR&gt;
      68X&lt;BR&gt;
      67Y&amp;nbsp;ALT&lt;BR&gt;
      67Z&amp;nbsp;ALT&lt;BR&gt;&lt;/FONT&gt;
    &lt;/TD&gt;
    &lt;TD BGCOLOR="#cccccc" ALIGN=CENTER&gt;&lt;FONT FACE=ARIAL SIZE=3&gt;
      5050&lt;BR&gt;
      5091&lt;BR&gt;
      5080&lt;BR&gt;
      5087&lt;BR&gt;
      -&lt;BR&gt;
      -&lt;BR&gt;
      -&lt;BR&gt;
      -&lt;BR&gt;
      -&lt;BR&gt;
      -&lt;BR&gt;
      -&lt;BR&gt;
      T63YB&lt;BR&gt;
      T63XB&lt;BR&gt;
      -&lt;BR&gt;
      -&lt;BR&gt;
      -&lt;BR&gt;
      5887&lt;BR&gt;
      5891&lt;BR&gt;
      5880&lt;BR&gt;
      -&lt;BR&gt;
      -&lt;BR&gt;
      -&lt;BR&gt;
      T93Z&lt;BR&gt;
      T93YA&lt;BR&gt;
      T93XA&lt;BR&gt;
      T93YB&lt;BR&gt;
      T93XB&lt;BR&gt;
      -&lt;BR&gt;
      -&lt;BR&gt;
      -&lt;BR&gt;
      -&lt;BR&gt;
      -&lt;BR&gt;&lt;/FONT&gt;
    &lt;/TD&gt;
    &lt;TD BGCOLOR="#cccccc" ALIGN=CENTER&gt;&lt;FONT FACE=ARIAL SIZE=3&gt;
      -&lt;BR&gt;
      -&lt;BR&gt;
      -&lt;BR&gt;
      -&lt;BR&gt;
      -&lt;BR&gt;
      -&lt;BR&gt;
      -&lt;BR&gt;
      -&lt;BR&gt;
      -&lt;BR&gt;
      -&lt;BR&gt;
      8026EKP&lt;BR&gt;
      8026EKW&lt;BR&gt;
      8026EKM&lt;BR&gt;
      8026EKP&lt;BR&gt;
      8026EKB&lt;BR&gt;
      8026EKM&lt;BR&gt;
      1309X&lt;BR&gt;
      1309P&lt;BR&gt;
      1309W&lt;BR&gt;
      8024EKP&lt;BR&gt;
      8024EKW&lt;BR&gt;
      8024EKN&lt;BR&gt;
      RJ-9P/CT9P&lt;BR&gt;
      RJ-9W&lt;BR&gt;
      RJ-9X&lt;BR&gt;
      -&lt;BR&gt;
      -&lt;BR&gt;
      -&lt;BR&gt;
      -&lt;BR&gt;
      -&lt;BR&gt;
      -&lt;BR&gt;
      -&lt;BR&gt;&lt;/FONT&gt;
    &lt;/TD&gt;
    &lt;TD BGCOLOR="#cccccc" ALIGN=CENTER&gt;&lt;FONT FACE=ARIAL SIZE=3&gt;
      -&lt;BR&gt;
      -&lt;BR&gt;
      -&lt;BR&gt;
      -&lt;BR&gt;
      -&lt;BR&gt;
      -&lt;BR&gt;
      -&lt;BR&gt;
      -&lt;BR&gt;
      -&lt;BR&gt;
      -&lt;BR&gt;
      3103P&lt;BR&gt;
      3103Y&lt;BR&gt;
      3103Z&lt;BR&gt;
      3103P&lt;BR&gt;
      3103Y&lt;BR&gt;
      3103Z&lt;BR&gt;
      -&lt;BR&gt;
      -&lt;BR&gt;
      -&lt;BR&gt;
      -&lt;BR&gt;
      -&lt;BR&gt;
      -&lt;BR&gt;
      3105P/3106P&lt;BR&gt;
      3105W/3106W&lt;BR&gt;
      3105X/3106X&lt;BR&gt;
      3105Y/3106Y&lt;BR&gt;
      3105Z/3105Z&lt;BR&gt;
      3102P&lt;BR&gt;
      3102W&lt;BR&gt;
      3102X&lt;BR&gt;
      3102Y&lt;BR&gt;
      3102Z&lt;BR&gt;&lt;/FONT&gt;
    &lt;/TD&gt;
    &lt;TD BGCOLOR="#cccccc" ALIGN=CENTER&gt;&lt;FONT FACE=ARIAL SIZE=3&gt;
      -&lt;BR&gt;
      -&lt;BR&gt;
      -&lt;BR&gt;
      -&lt;BR&gt;
      -&lt;BR&gt;
      -&lt;BR&gt;
      -&lt;BR&gt;
      -&lt;BR&gt;
      -&lt;BR&gt;
      -&lt;BR&gt;
      -&lt;BR&gt;
      -&lt;BR&gt;
      -&lt;BR&gt;
      -&lt;BR&gt;
      -&lt;BR&gt;
      -&lt;BR&gt;
      -&lt;BR&gt;
      -&lt;BR&gt;
      -&lt;BR&gt;
      -&lt;BR&gt;
      -&lt;BR&gt;
      -&lt;BR&gt;
      EVMCBG&lt;BR&gt;
      EVMCCG&lt;BR&gt;
      -&lt;BR&gt;
      -&lt;BR&gt;
      -&lt;BR&gt;
      -&lt;BR&gt;
      -&lt;BR&gt;
      -&lt;BR&gt;
      -&lt;BR&gt;
      -&lt;BR&gt;&lt;/FONT&gt;
    &lt;/TD&gt;
    &lt;TD BGCOLOR="#cccccc" ALIGN=CENTER&gt;&lt;FONT FACE=ARIAL SIZE=3&gt;
      55-1-X&lt;BR&gt;
      55-4-X&lt;BR&gt;
      55-3-X&lt;BR&gt;
      55-2-X&lt;BR&gt;
      -&lt;BR&gt;
      -&lt;BR&gt;
      -&lt;BR&gt;
      -&lt;BR&gt;
      -&lt;BR&gt;
      -&lt;BR&gt;
      -&lt;BR&gt;
      -&lt;BR&gt;
      -&lt;BR&gt;
      -&lt;BR&gt;
      -&lt;BR&gt;
      -&lt;BR&gt;
      50-2-X&lt;BR&gt;
      50-4-X&lt;BR&gt;
      50-3-X&lt;BR&gt;
      -&lt;BR&gt;
      -&lt;BR&gt;
      -&lt;BR&gt;
      64P&lt;BR&gt;
      64W&lt;BR&gt;
      64X&lt;BR&gt;
      64Y&lt;BR&gt;
      64Z&lt;BR&gt;
      -&lt;BR&gt;
      -&lt;BR&gt;
      -&lt;BR&gt;
      -&lt;BR&gt;
      -&lt;BR&gt;&lt;/FONT&gt;
    &lt;/TD&gt;
    &lt;TD BGCOLOR="#cccccc" ALIGN=CENTER&gt;&lt;FONT FACE=ARIAL SIZE=3&gt;
      RT/RTR22&lt;BR&gt;
      RT/RTR22&lt;BR&gt;
      RT/RTR22&lt;BR&gt;
      RT/RTR22&lt;BR&gt;
      RJ/RJR22&lt;BR&gt;
      RJ/RJR22&lt;BR&gt;
      RJ/RJR22&lt;BR&gt;
      RT/RTR26&lt;BR&gt;
      RT/RTR26&lt;BR&gt;
      RT/RTR26&lt;BR&gt;
      RJ/RJR26&lt;BR&gt;
      RJ/RJR26&lt;BR&gt;
      RJ/RJR26&lt;BR&gt;
      RJ/RJR26&lt;BR&gt;
      RJ/RJR26&lt;BR&gt;
      RJ/RJR26&lt;BR&gt;
      RT/RTR24&lt;BR&gt;
      RT/RTR24&lt;BR&gt;
      RT/RTR24&lt;BR&gt;
      RJ/RJR24&lt;BR&gt;
      RJ/RJR24&lt;BR&gt;
      RJ/RJR24&lt;BR&gt;
      RJ/RJR24&lt;BR&gt;
      RJ/RJR24&lt;BR&gt;
      RJ/RJR24&lt;BR&gt;
      -&lt;BR&gt;
      -&lt;BR&gt;
      -&lt;BR&gt;
      -&lt;BR&gt;
      -&lt;BR&gt;
      -&lt;BR&gt;
      -&lt;BR&gt;&lt;/FONT&gt;
    &lt;/TD&gt;
  &lt;/TR&gt;
  &lt;TR&gt;
    &lt;TD COLSPAN=8&gt;&amp;nbsp;
    &lt;/TD&gt;
  &lt;/TR&gt;
  &lt;TR&gt;
    &lt;TD COLSPAN=8&gt;
      &lt;FONT SIZE=4 FACE=ARIAL&gt;&lt;B&gt;SINGLE TURN&lt;/B&gt;&lt;/FONT&gt;
    &lt;/TD&gt;
  &lt;/TR&gt;
  &lt;TR&gt;
    &lt;TD ALIGN=CENTER&gt;
      &lt;FONT SIZE=3 FACE=ARIAL&gt;&lt;B&gt;BOURN&lt;/B&gt;&lt;/FONT&gt;
    &lt;/TD&gt;
    &lt;TD ALIGN=CENTER&gt;
      &lt;FONT SIZE=3 FACE=ARIAL&gt;&lt;B&gt;BI&amp;nbsp;TECH&lt;/B&gt;&lt;/FONT&gt;
    &lt;/TD&gt;
    &lt;TD ALIGN=CENTER&gt;
      &lt;FONT SIZE=3 FACE=ARIAL&gt;&lt;B&gt;DALE-VISHAY&lt;/B&gt;&lt;/FONT&gt;
    &lt;/TD&gt;
    &lt;TD ALIGN=CENTER&gt;
      &lt;FONT SIZE=3 FACE=ARIAL&gt;&lt;B&gt;PHILIPS/MEPCO&lt;/B&gt;&lt;/FONT&gt;
    &lt;/TD&gt;
    &lt;TD ALIGN=CENTER&gt;
      &lt;FONT SIZE=3 FACE=ARIAL&gt;&lt;B&gt;MURATA&lt;/B&gt;&lt;/FONT&gt;
    &lt;/TD&gt;
    &lt;TD ALIGN=CENTER&gt;
      &lt;FONT SIZE=3 FACE=ARIAL&gt;&lt;B&gt;PANASONIC&lt;/B&gt;&lt;/FONT&gt;
    &lt;/TD&gt;
    &lt;TD ALIGN=CENTER&gt;
      &lt;FONT SIZE=3 FACE=ARIAL&gt;&lt;B&gt;SPECTROL&lt;/B&gt;&lt;/FONT&gt;
    &lt;/TD&gt;
    &lt;TD ALIGN=CENTER&gt;
      &lt;FONT SIZE=3 FACE=ARIAL&gt;&lt;B&gt;MILSPEC&lt;/B&gt;&lt;/FONT&gt;
    &lt;/TD&gt;
  &lt;/TR&gt;
  &lt;TR&gt;
    &lt;TD BGCOLOR="#cccccc" ALIGN=CENTER&gt;&lt;FONT FACE=ARIAL SIZE=3&gt;
      3323P&lt;BR&gt;
      3323S&lt;BR&gt;
      3323W&lt;BR&gt;
      3329H&lt;BR&gt;
      3329P&lt;BR&gt;
      3329W&lt;BR&gt;
      3339H&lt;BR&gt;
      3339P&lt;BR&gt;
      3339W&lt;BR&gt;
      3352E&lt;BR&gt;
      3352H&lt;BR&gt;
      3352K&lt;BR&gt;
      3352P&lt;BR&gt;
      3352T&lt;BR&gt;
      3352V&lt;BR&gt;
      3352W&lt;BR&gt;
      3362H&lt;BR&gt;
      3362M&lt;BR&gt;
      3362P&lt;BR&gt;
      3362R&lt;BR&gt;
      3362S&lt;BR&gt;
      3362U&lt;BR&gt;
      3362W&lt;BR&gt;
      3362X&lt;BR&gt;
      3386B&lt;BR&gt;
      3386C&lt;BR&gt;
      3386F&lt;BR&gt;
      3386H&lt;BR&gt;
      3386K&lt;BR&gt;
      3386M&lt;BR&gt;
      3386P&lt;BR&gt;
      3386S&lt;BR&gt;
      3386W&lt;BR&gt;
      3386X&lt;BR&gt;&lt;/FONT&gt;
    &lt;/TD&gt;
    &lt;TD BGCOLOR="#cccccc" ALIGN=CENTER&gt;&lt;FONT FACE=ARIAL SIZE=3&gt;
      25P&lt;BR&gt;
      25S&lt;BR&gt;
      25RX&lt;BR&gt;
      82P&lt;BR&gt;
      82M&lt;BR&gt;
      82PA&lt;BR&gt;
      -&lt;BR&gt;
      -&lt;BR&gt;
      -&lt;BR&gt;
      91E&lt;BR&gt;
      91X&lt;BR&gt;
      91T&lt;BR&gt;
      91B&lt;BR&gt;
      91A&lt;BR&gt;
      91V&lt;BR&gt;
      91W&lt;BR&gt;
      25W&lt;BR&gt;
      25V&lt;BR&gt;
      25P&lt;BR&gt;
      -&lt;BR&gt;
      25S&lt;BR&gt;
      25U&lt;BR&gt;
      25RX&lt;BR&gt;
      25X&lt;BR&gt;
      72XW&lt;BR&gt;
      72XL&lt;BR&gt;
      72PM&lt;BR&gt;
      72RX&lt;BR&gt;
      -&lt;BR&gt;
      72PX&lt;BR&gt;
      72P&lt;BR&gt;
      72RXW&lt;BR&gt;
      72RXL&lt;BR&gt;
      72X&lt;BR&gt;&lt;/FONT&gt;
    &lt;/TD&gt;
    &lt;TD BGCOLOR="#cccccc" ALIGN=CENTER&gt;&lt;FONT FACE=ARIAL SIZE=3&gt;
      -&lt;BR&gt;
      -&lt;BR&gt;
      -&lt;BR&gt;
      T7YB&lt;BR&gt;
      T7YA&lt;BR&gt;
      -&lt;BR&gt;
      -&lt;BR&gt;
      -&lt;BR&gt;
      -&lt;BR&gt;
      -&lt;BR&gt;
      -&lt;BR&gt;
      -&lt;BR&gt;
      -&lt;BR&gt;
      -&lt;BR&gt;
      -&lt;BR&gt;
      -&lt;BR&gt;
      -&lt;BR&gt;
      TXD&lt;BR&gt;
      TYA&lt;BR&gt;
      TYP&lt;BR&gt;
      -&lt;BR&gt;
      TYD&lt;BR&gt;
      TX&lt;BR&gt;
      -&lt;BR&gt;
      150SX&lt;BR&gt;
      100SX&lt;BR&gt;
      102T&lt;BR&gt;
      101S&lt;BR&gt;
      190T&lt;BR&gt;
      150TX&lt;BR&gt;
      101&lt;BR&gt;
      -&lt;BR&gt;
      -&lt;BR&gt;
      101SX&lt;BR&gt;&lt;/FONT&gt;
    &lt;/TD&gt;
    &lt;TD BGCOLOR="#cccccc" ALIGN=CENTER&gt;&lt;FONT FACE=ARIAL SIZE=3&gt;
      ET6P&lt;BR&gt;
      ET6S&lt;BR&gt;
      ET6X&lt;BR&gt;
      RJ-6W/8014EMW&lt;BR&gt;
      RJ-6P/8014EMP&lt;BR&gt;
      RJ-6X/8014EMX&lt;BR&gt;
      TM7W&lt;BR&gt;
      TM7P&lt;BR&gt;
      TM7X&lt;BR&gt;
      -&lt;BR&gt;
      8017SMS&lt;BR&gt;
      -&lt;BR&gt;
      8017SMB&lt;BR&gt;
      8017SMA&lt;BR&gt;
      -&lt;BR&gt;
      -&lt;BR&gt;
      CT-6W&lt;BR&gt;
      CT-6H&lt;BR&gt;
      CT-6P&lt;BR&gt;
      CT-6R&lt;BR&gt;
      -&lt;BR&gt;
      CT-6V&lt;BR&gt;
      CT-6X&lt;BR&gt;
      -&lt;BR&gt;
      -&lt;BR&gt;
      8038EKV&lt;BR&gt;
      -&lt;BR&gt;
      8038EKX&lt;BR&gt;
      -&lt;BR&gt;
      -&lt;BR&gt;
      8038EKP&lt;BR&gt;
      8038EKZ&lt;BR&gt;
      8038EKW&lt;BR&gt;
      -&lt;BR&gt;&lt;/FONT&gt;
    &lt;/TD&gt;
    &lt;TD BGCOLOR="#cccccc" ALIGN=CENTER&gt;&lt;FONT FACE=ARIAL SIZE=3&gt;
      -&lt;BR&gt;
      -&lt;BR&gt;
      -&lt;BR&gt;
      3321H&lt;BR&gt;
      3321P&lt;BR&gt;
      3321N&lt;BR&gt;
      1102H&lt;BR&gt;
      1102P&lt;BR&gt;
      1102T&lt;BR&gt;
      RVA0911V304A&lt;BR&gt;
      -&lt;BR&gt;
      RVA0911H413A&lt;BR&gt;
      RVG0707V100A&lt;BR&gt;
      RVA0607V(H)306A&lt;BR&gt;
      RVA1214H213A&lt;BR&gt;
      -&lt;BR&gt;
      -&lt;BR&gt;
      -&lt;BR&gt;
      -&lt;BR&gt;
      -&lt;BR&gt;
      -&lt;BR&gt;
      -&lt;BR&gt;
      -&lt;BR&gt;
      -&lt;BR&gt;
      3104B&lt;BR&gt;
      3104C&lt;BR&gt;
      3104F&lt;BR&gt;
      3104H&lt;BR&gt;
      -&lt;BR&gt;
      3104M&lt;BR&gt;
      3104P&lt;BR&gt;
      3104S&lt;BR&gt;
      3104W&lt;BR&gt;
      3104X&lt;BR&gt;&lt;/FONT&gt;
    &lt;/TD&gt;
    &lt;TD BGCOLOR="#cccccc" ALIGN=CENTER&gt;&lt;FONT FACE=ARIAL SIZE=3&gt;
      EVMQ0G&lt;BR&gt;
      EVMQIG&lt;BR&gt;
      EVMQ3G&lt;BR&gt;
      EVMS0G&lt;BR&gt;
      EVMQ0G&lt;BR&gt;
      EVMG0G&lt;BR&gt;
      -&lt;BR&gt;
      -&lt;BR&gt;
      -&lt;BR&gt;
      EVMK4GA00B&lt;BR&gt;
      EVM30GA00B&lt;BR&gt;
      EVMK0GA00B&lt;BR&gt;
      EVM38GA00B&lt;BR&gt;
      EVMB6&lt;BR&gt;
      EVLQ0&lt;BR&gt;
      -&lt;BR&gt;
      EVMMSG&lt;BR&gt;
      EVMMBG&lt;BR&gt;
      EVMMAG&lt;BR&gt;
      -&lt;BR&gt;
      -&lt;BR&gt;
      EVMMCS&lt;BR&gt;
      -&lt;BR&gt;
      -&lt;BR&gt;
      -&lt;BR&gt;
      -&lt;BR&gt;
      -&lt;BR&gt;
      EVMM1&lt;BR&gt;
      -&lt;BR&gt;
      -&lt;BR&gt;
      EVMM0&lt;BR&gt;
      -&lt;BR&gt;
      -&lt;BR&gt;
      EVMM3&lt;BR&gt;&lt;/FONT&gt;
    &lt;/TD&gt;
    &lt;TD BGCOLOR="#cccccc" ALIGN=CENTER&gt;&lt;FONT FACE=ARIAL SIZE=3&gt;
      -&lt;BR&gt;
      -&lt;BR&gt;
      -&lt;BR&gt;
      62-3-1&lt;BR&gt;
      62-1-2&lt;BR&gt;
      -&lt;BR&gt;
      -&lt;BR&gt;
      -&lt;BR&gt;
      -&lt;BR&gt;
      -&lt;BR&gt;
      -&lt;BR&gt;
      -&lt;BR&gt;
      -&lt;BR&gt;
      -&lt;BR&gt;
      -&lt;BR&gt;
      -&lt;BR&gt;
      67R&lt;BR&gt;
      -&lt;BR&gt;
      67P&lt;BR&gt;
      -&lt;BR&gt;
      -&lt;BR&gt;
      -&lt;BR&gt;
      -&lt;BR&gt;
      67X&lt;BR&gt;
      63V&lt;BR&gt;
      63S&lt;BR&gt;
      63M&lt;BR&gt;
      -&lt;BR&gt;
      -&lt;BR&gt;
      63H&lt;BR&gt;
      63P&lt;BR&gt;
      -&lt;BR&gt;
      -&lt;BR&gt;
      63X&lt;BR&gt;&lt;/FONT&gt;
    &lt;/TD&gt;
    &lt;TD BGCOLOR="#cccccc" ALIGN=CENTER&gt;&lt;FONT FACE=ARIAL SIZE=3&gt;
      -&lt;BR&gt;
      -&lt;BR&gt;
      -&lt;BR&gt;
      RJ/RJR50&lt;BR&gt;
      RJ/RJR50&lt;BR&gt;
      RJ/RJR50&lt;BR&gt;
      -&lt;BR&gt;
      -&lt;BR&gt;
      -&lt;BR&gt;
      -&lt;BR&gt;
      -&lt;BR&gt;
      -&lt;BR&gt;
      -&lt;BR&gt;
      -&lt;BR&gt;
      -&lt;BR&gt;
      -&lt;BR&gt;
      -&lt;BR&gt;
      -&lt;BR&gt;
      -&lt;BR&gt;
      -&lt;BR&gt;
      -&lt;BR&gt;
      -&lt;BR&gt;
      -&lt;BR&gt;
      -&lt;BR&gt;
      -&lt;BR&gt;
      -&lt;BR&gt;
      -&lt;BR&gt;
      -&lt;BR&gt;
      -&lt;BR&gt;
      -&lt;BR&gt;
      -&lt;BR&gt;
      -&lt;BR&gt;
      -&lt;BR&gt;
      -&lt;BR&gt;&lt;/FONT&gt;
    &lt;/TD&gt;
  &lt;/TR&gt;
&lt;/TABLE&gt;
&lt;P&gt;&amp;nbsp;&lt;P&gt;
&lt;TABLE BORDER=0 CELLSPACING=1 CELLPADDING=3&gt;
  &lt;TR&gt;
    &lt;TD COLSPAN=7&gt;
      &lt;FONT color="#0000FF" SIZE=4 FACE=ARIAL&gt;&lt;B&gt;SMD TRIM-POT CROSS REFERENCE&lt;/B&gt;&lt;/FONT&gt;
      &lt;P&gt;
      &lt;FONT SIZE=4 FACE=ARIAL&gt;&lt;B&gt;MULTI-TURN&lt;/B&gt;&lt;/FONT&gt;
    &lt;/TD&gt;
  &lt;/TR&gt;
  &lt;TR&gt;
    &lt;TD&gt;
      &lt;FONT SIZE=3 FACE=ARIAL&gt;&lt;B&gt;BOURNS&lt;/B&gt;&lt;/FONT&gt;
    &lt;/TD&gt;
    &lt;TD&gt;
      &lt;FONT SIZE=3 FACE=ARIAL&gt;&lt;B&gt;BI&amp;nbsp;TECH&lt;/B&gt;&lt;/FONT&gt;
    &lt;/TD&gt;
    &lt;TD&gt;
      &lt;FONT SIZE=3 FACE=ARIAL&gt;&lt;B&gt;DALE-VISHAY&lt;/B&gt;&lt;/FONT&gt;
    &lt;/TD&gt;
    &lt;TD&gt;
      &lt;FONT SIZE=3 FACE=ARIAL&gt;&lt;B&gt;PHILIPS/MEPCO&lt;/B&gt;&lt;/FONT&gt;
    &lt;/TD&gt;
    &lt;TD&gt;
      &lt;FONT SIZE=3 FACE=ARIAL&gt;&lt;B&gt;PANASONIC&lt;/B&gt;&lt;/FONT&gt;
    &lt;/TD&gt;
    &lt;TD&gt;
      &lt;FONT SIZE=3 FACE=ARIAL&gt;&lt;B&gt;TOCOS&lt;/B&gt;&lt;/FONT&gt;
    &lt;/TD&gt;
    &lt;TD&gt;
      &lt;FONT SIZE=3 FACE=ARIAL&gt;&lt;B&gt;AUX/KYOCERA&lt;/B&gt;&lt;/FONT&gt;
    &lt;/TD&gt;
  &lt;/TR&gt;
  &lt;TR&gt;
    &lt;TD BGCOLOR="#cccccc" ALIGN=CENTER&gt;&lt;FONT FACE=ARIAL SIZE=3&gt;
      3224G&lt;BR&gt;
      3224J&lt;BR&gt;
      3224W&lt;BR&gt;
      3269P&lt;BR&gt;
      3269W&lt;BR&gt;
      3269X&lt;BR&gt;&lt;/FONT&gt;
    &lt;/TD&gt;
    &lt;TD BGCOLOR="#cccccc" ALIGN=CENTER&gt;&lt;FONT FACE=ARIAL SIZE=3&gt;
      44G&lt;BR&gt;
      44J&lt;BR&gt;
      44W&lt;BR&gt;
      84P&lt;BR&gt;
      84W&lt;BR&gt;
      84X&lt;BR&gt;&lt;/FONT&gt;
    &lt;/TD&gt;
    &lt;TD BGCOLOR="#cccccc" ALIGN=CENTER&gt;&lt;FONT FACE=ARIAL SIZE=3&gt;
      -&lt;BR&gt;
      -&lt;BR&gt;
      -&lt;BR&gt;
      ST63Z&lt;BR&gt;
      ST63Y&lt;BR&gt;
      -&lt;BR&gt;&lt;/FONT&gt;
    &lt;/TD&gt;
    &lt;TD BGCOLOR="#cccccc" ALIGN=CENTER&gt;&lt;FONT FACE=ARIAL SIZE=3&gt;
      -&lt;BR&gt;
      -&lt;BR&gt;
      -&lt;BR&gt;
      ST5P&lt;BR&gt;
      ST5W&lt;BR&gt;
      ST5X&lt;BR&gt;&lt;/FONT&gt;
    &lt;/TD&gt;
    &lt;TD BGCOLOR="#cccccc" ALIGN=CENTER&gt;&lt;FONT FACE=ARIAL SIZE=3&gt;
      -&lt;BR&gt;
      -&lt;BR&gt;
      -&lt;BR&gt;
      -&lt;BR&gt;
      -&lt;BR&gt;
      -&lt;BR&gt;&lt;/FONT&gt;
    &lt;/TD&gt;
    &lt;TD BGCOLOR="#cccccc" ALIGN=CENTER&gt;&lt;FONT FACE=ARIAL SIZE=3&gt;
      -&lt;BR&gt;
      -&lt;BR&gt;
      -&lt;BR&gt;
      -&lt;BR&gt;
      -&lt;BR&gt;
      -&lt;BR&gt;&lt;/FONT&gt;
    &lt;/TD&gt;
    &lt;TD BGCOLOR="#cccccc" ALIGN=CENTER&gt;&lt;FONT FACE=ARIAL SIZE=3&gt;
      -&lt;BR&gt;
      -&lt;BR&gt;
      -&lt;BR&gt;
      -&lt;BR&gt;
      -&lt;BR&gt;
      -&lt;BR&gt;&lt;/FONT&gt;
    &lt;/TD&gt;
  &lt;/TR&gt;
  &lt;TR&gt;
    &lt;TD COLSPAN=7&gt;&amp;nbsp;
    &lt;/TD&gt;
  &lt;/TR&gt;
  &lt;TR&gt;
    &lt;TD COLSPAN=7&gt;
      &lt;FONT SIZE=4 FACE=ARIAL&gt;&lt;B&gt;SINGLE TURN&lt;/B&gt;&lt;/FONT&gt;
    &lt;/TD&gt;
  &lt;/TR&gt;
  &lt;TR&gt;
    &lt;TD&gt;
      &lt;FONT SIZE=3 FACE=ARIAL&gt;&lt;B&gt;BOURNS&lt;/B&gt;&lt;/FONT&gt;
    &lt;/TD&gt;
    &lt;TD&gt;
      &lt;FONT SIZE=3 FACE=ARIAL&gt;&lt;B&gt;BI&amp;nbsp;TECH&lt;/B&gt;&lt;/FONT&gt;
    &lt;/TD&gt;
    &lt;TD&gt;
      &lt;FONT SIZE=3 FACE=ARIAL&gt;&lt;B&gt;DALE-VISHAY&lt;/B&gt;&lt;/FONT&gt;
    &lt;/TD&gt;
    &lt;TD&gt;
      &lt;FONT SIZE=3 FACE=ARIAL&gt;&lt;B&gt;PHILIPS/MEPCO&lt;/B&gt;&lt;/FONT&gt;
    &lt;/TD&gt;
    &lt;TD&gt;
      &lt;FONT SIZE=3 FACE=ARIAL&gt;&lt;B&gt;PANASONIC&lt;/B&gt;&lt;/FONT&gt;
    &lt;/TD&gt;
    &lt;TD&gt;
      &lt;FONT SIZE=3 FACE=ARIAL&gt;&lt;B&gt;TOCOS&lt;/B&gt;&lt;/FONT&gt;
    &lt;/TD&gt;
    &lt;TD&gt;
      &lt;FONT SIZE=3 FACE=ARIAL&gt;&lt;B&gt;AUX/KYOCERA&lt;/B&gt;&lt;/FONT&gt;
    &lt;/TD&gt;
  &lt;/TR&gt;
  &lt;TR&gt;
    &lt;TD BGCOLOR="#cccccc" ALIGN=CENTER&gt;&lt;FONT FACE=ARIAL SIZE=3&gt;
      3314G&lt;BR&gt;
      3314J&lt;BR&gt;
      3364A/B&lt;BR&gt;
      3364C/D&lt;BR&gt;
      3364W/X&lt;BR&gt;
      3313G&lt;BR&gt;
      3313J&lt;BR&gt;&lt;/FONT&gt;
    &lt;/TD&gt;
    &lt;TD BGCOLOR="#cccccc" ALIGN=CENTER&gt;&lt;FONT FACE=ARIAL SIZE=3&gt;
      23B&lt;BR&gt;
      23A&lt;BR&gt;
      21X&lt;BR&gt;
      21W&lt;BR&gt;
      -&lt;BR&gt;
      22B&lt;BR&gt;
      22A&lt;BR&gt;&lt;/FONT&gt;
    &lt;/TD&gt;
    &lt;TD BGCOLOR="#cccccc" ALIGN=CENTER&gt;&lt;FONT FACE=ARIAL SIZE=3&gt;
      ST5YL/ST53YL&lt;BR&gt;
      ST5YJ/5T53YJ&lt;BR&gt;
      ST-23A&lt;BR&gt;
      ST-22B&lt;BR&gt;
      ST-22&lt;BR&gt;
      -&lt;BR&gt;
      -&lt;BR&gt;&lt;/FONT&gt;
    &lt;/TD&gt;
    &lt;TD BGCOLOR="#cccccc" ALIGN=CENTER&gt;&lt;FONT FACE=ARIAL SIZE=3&gt;
      ST-4B&lt;BR&gt;
      ST-4A&lt;BR&gt;
      -&lt;BR&gt;
      -&lt;BR&gt;
      -&lt;BR&gt;
      ST-3B&lt;BR&gt;
      ST-3A&lt;BR&gt;&lt;/FONT&gt;
    &lt;/TD&gt;
    &lt;TD BGCOLOR="#cccccc" ALIGN=CENTER&gt;&lt;FONT FACE=ARIAL SIZE=3&gt;
      -&lt;BR&gt;
      EVM-6YS&lt;BR&gt;
      EVM-1E&lt;BR&gt;
      EVM-1G&lt;BR&gt;
      EVM-1D&lt;BR&gt;
      -&lt;BR&gt;
      -&lt;BR&gt;&lt;/FONT&gt;
    &lt;/TD&gt;
    &lt;TD BGCOLOR="#cccccc" ALIGN=CENTER&gt;&lt;FONT FACE=ARIAL SIZE=3&gt;
      G4B&lt;BR&gt;
      G4A&lt;BR&gt;
      TR04-3S1&lt;BR&gt;
      TRG04-2S1&lt;BR&gt;
      -&lt;BR&gt;
      -&lt;BR&gt;
      -&lt;BR&gt;&lt;/FONT&gt;
    &lt;/TD&gt;
    &lt;TD BGCOLOR="#cccccc" ALIGN=CENTER&gt;&lt;FONT FACE=ARIAL SIZE=3&gt;
      -&lt;BR&gt;
      -&lt;BR&gt;
      DVR-43A&lt;BR&gt;
      CVR-42C&lt;BR&gt;
      CVR-42A/C&lt;BR&gt;
      -&lt;BR&gt;
      -&lt;BR&gt;&lt;/FONT&gt;
    &lt;/TD&gt;
  &lt;/TR&gt;
&lt;/TABLE&gt;
&lt;P&gt;
&lt;FONT SIZE=4 FACE=ARIAL&gt;&lt;B&gt;ALT =&amp;nbsp;ALTERNATE&lt;/B&gt;&lt;/FONT&gt;
&lt;P&gt;

&amp;nbsp;
&lt;P&gt;
&lt;/td&gt;
&lt;/tr&gt;
&lt;/table&gt;
&lt;/BODY&gt;&lt;/HTML&gt;</description>
<packages>
<package name="C050-030X075" urn="urn:adsk.eagle:footprint:23150/1" library_version="3">
<description>&lt;b&gt;CAPACITOR&lt;/b&gt;&lt;p&gt;
grid 5 mm, outline 3 x 7.5 mm</description>
<wire x1="-0.3048" y1="0.635" x2="-0.3048" y2="0" width="0.3048" layer="21"/>
<wire x1="-0.3048" y1="0" x2="-0.3048" y2="-0.635" width="0.3048" layer="21"/>
<wire x1="-0.3048" y1="0" x2="-1.524" y2="0" width="0.1524" layer="21"/>
<wire x1="0.3302" y1="0.635" x2="0.3302" y2="0" width="0.3048" layer="21"/>
<wire x1="0.3302" y1="0" x2="0.3302" y2="-0.635" width="0.3048" layer="21"/>
<wire x1="0.3302" y1="0" x2="1.524" y2="0" width="0.1524" layer="21"/>
<wire x1="-3.683" y1="1.27" x2="-3.683" y2="-1.27" width="0.1524" layer="21"/>
<wire x1="-3.429" y1="-1.524" x2="3.429" y2="-1.524" width="0.1524" layer="21"/>
<wire x1="3.683" y1="-1.27" x2="3.683" y2="1.27" width="0.1524" layer="21"/>
<wire x1="3.429" y1="1.524" x2="-3.429" y2="1.524" width="0.1524" layer="21"/>
<wire x1="3.429" y1="1.524" x2="3.683" y2="1.27" width="0.1524" layer="21" curve="-90"/>
<wire x1="3.429" y1="-1.524" x2="3.683" y2="-1.27" width="0.1524" layer="21" curve="90"/>
<wire x1="-3.683" y1="-1.27" x2="-3.429" y2="-1.524" width="0.1524" layer="21" curve="90"/>
<wire x1="-3.683" y1="1.27" x2="-3.429" y2="1.524" width="0.1524" layer="21" curve="-90"/>
<pad name="1" x="-2.54" y="0" drill="0.8128" shape="octagon"/>
<pad name="2" x="2.54" y="0" drill="0.8128" shape="octagon"/>
<text x="-3.556" y="1.905" size="1.27" layer="25" ratio="10">&gt;NAME</text>
<text x="-3.556" y="-3.048" size="1.27" layer="27" ratio="10">&gt;VALUE</text>
</package>
<package name="E2,5-7" urn="urn:adsk.eagle:footprint:22847/1" library_version="3">
<description>&lt;b&gt;ELECTROLYTIC CAPACITOR&lt;/b&gt;&lt;p&gt;
grid 2.54 mm, diameter 7 mm</description>
<wire x1="-3.048" y1="0" x2="-2.286" y2="0" width="0.1524" layer="21"/>
<wire x1="-2.667" y1="-0.381" x2="-2.667" y2="0.381" width="0.1524" layer="21"/>
<wire x1="-1.651" y1="0" x2="-0.762" y2="0" width="0.1524" layer="51"/>
<wire x1="-0.762" y1="0" x2="-0.762" y2="-1.27" width="0.1524" layer="51"/>
<wire x1="-0.762" y1="-1.27" x2="-0.254" y2="-1.27" width="0.1524" layer="51"/>
<wire x1="-0.254" y1="-1.27" x2="-0.254" y2="1.27" width="0.1524" layer="51"/>
<wire x1="-0.254" y1="1.27" x2="-0.762" y2="1.27" width="0.1524" layer="51"/>
<wire x1="-0.762" y1="1.27" x2="-0.762" y2="0" width="0.1524" layer="51"/>
<wire x1="0.635" y1="0" x2="1.651" y2="0" width="0.1524" layer="51"/>
<circle x="0" y="0" radius="3.429" width="0.1524" layer="21"/>
<pad name="-" x="1.27" y="0" drill="0.8128" diameter="1.6002" shape="octagon"/>
<pad name="+" x="-1.27" y="0" drill="0.8128" diameter="1.6002"/>
<text x="3.048" y="2.032" size="1.27" layer="25" ratio="10">&gt;NAME</text>
<text x="3.048" y="-3.175" size="1.27" layer="27" ratio="10">&gt;VALUE</text>
<rectangle x1="0.254" y1="-1.27" x2="0.762" y2="1.27" layer="51"/>
</package>
<package name="R1206W" urn="urn:adsk.eagle:footprint:23048/1" library_version="3">
<description>&lt;b&gt;RESISTOR&lt;/b&gt;&lt;p&gt;
wave soldering</description>
<wire x1="-0.913" y1="0.8" x2="0.888" y2="0.8" width="0.1524" layer="51"/>
<wire x1="-0.913" y1="-0.8" x2="0.888" y2="-0.8" width="0.1524" layer="51"/>
<wire x1="-2.473" y1="0.983" x2="2.473" y2="0.983" width="0.0508" layer="39"/>
<wire x1="2.473" y1="0.983" x2="2.473" y2="-0.983" width="0.0508" layer="39"/>
<wire x1="2.473" y1="-0.983" x2="-2.473" y2="-0.983" width="0.0508" layer="39"/>
<wire x1="-2.473" y1="-0.983" x2="-2.473" y2="0.983" width="0.0508" layer="39"/>
<smd name="1" x="-1.499" y="0" dx="1.8" dy="1.2" layer="1"/>
<smd name="2" x="1.499" y="0" dx="1.8" dy="1.2" layer="1"/>
<text x="-1.905" y="1.27" size="1.27" layer="25">&gt;NAME</text>
<text x="-1.905" y="-2.54" size="1.27" layer="27">&gt;VALUE</text>
<rectangle x1="-1.651" y1="-0.8763" x2="-0.9009" y2="0.8738" layer="51"/>
<rectangle x1="0.889" y1="-0.8763" x2="1.6391" y2="0.8738" layer="51"/>
<rectangle x1="-0.3" y1="-0.7" x2="0.3" y2="0.7" layer="35"/>
</package>
</packages>
<packages3d>
<package3d name="C050-030X075" urn="urn:adsk.eagle:package:23640/1" type="box" library_version="3">
<description>CAPACITOR
grid 5 mm, outline 3 x 7.5 mm</description>
<packageinstances>
<packageinstance name="C050-030X075"/>
</packageinstances>
</package3d>
<package3d name="E2,5-7" urn="urn:adsk.eagle:package:23345/1" type="box" library_version="3">
<description>ELECTROLYTIC CAPACITOR
grid 2.54 mm, diameter 7 mm</description>
<packageinstances>
<packageinstance name="E2,5-7"/>
</packageinstances>
</package3d>
<package3d name="R1206W" urn="urn:adsk.eagle:package:23539/2" type="model" library_version="3">
<description>RESISTOR
wave soldering</description>
<packageinstances>
<packageinstance name="R1206W"/>
</packageinstances>
</package3d>
</packages3d>
</library>
<library name="SparkFun-Switches" urn="urn:adsk.eagle:library:535">
<description>&lt;h3&gt;SparkFun Switches, Buttons, Encoders&lt;/h3&gt;
In this library you'll find switches, buttons, joysticks, and anything that moves to create or disrupt an electrical connection.
&lt;br&gt;
&lt;br&gt;
We've spent an enormous amount of time creating and checking these footprints and parts, but it is &lt;b&gt; the end user's responsibility&lt;/b&gt; to ensure correctness and suitablity for a given componet or application. 
&lt;br&gt;
&lt;br&gt;If you enjoy using this library, please buy one of our products at &lt;a href=" www.sparkfun.com"&gt;SparkFun.com&lt;/a&gt;.
&lt;br&gt;
&lt;br&gt;
&lt;b&gt;Licensing:&lt;/b&gt; Creative Commons ShareAlike 4.0 International - https://creativecommons.org/licenses/by-sa/4.0/ 
&lt;br&gt;
&lt;br&gt;
You are welcome to use this library for commercial purposes. For attribution, we ask that when you begin to sell your device using our footprint, you email us with a link to the product being sold. We want bragging rights that we helped (in a very small part) to create your 8th world wonder. We would like the opportunity to feature your device on our homepage.</description>
<packages>
<package name="TACTILE_SWITCH_SMD_6.0X3.5MM" urn="urn:adsk.eagle:footprint:40106/1" library_version="1">
<description>&lt;h3&gt;Momentary Switch (Pushbutton) - SPST - SMD, 6.0 x 3.5 mm&lt;/h3&gt;
&lt;p&gt;Normally-open (NO) SPST momentary switches (buttons, pushbuttons).&lt;/p&gt;
&lt;p&gt;&lt;a href="https://www.sparkfun.com/datasheets/Components/1101.pdf"&gt;Datasheet&lt;/a&gt;&lt;/p&gt;</description>
<wire x1="-3" y1="1.1" x2="-3" y2="-1.1" width="0.127" layer="51"/>
<wire x1="3" y1="1.1" x2="3" y2="-1.1" width="0.127" layer="51"/>
<wire x1="-2.75" y1="1.75" x2="-3" y2="1.5" width="0.2032" layer="21" curve="90"/>
<wire x1="-2.75" y1="1.75" x2="2.75" y2="1.75" width="0.2032" layer="21"/>
<wire x1="2.75" y1="1.75" x2="3" y2="1.5" width="0.2032" layer="21" curve="-90"/>
<wire x1="3" y1="-1.5" x2="2.75" y2="-1.75" width="0.2032" layer="21" curve="-90"/>
<wire x1="2.75" y1="-1.75" x2="-2.75" y2="-1.75" width="0.2032" layer="21"/>
<wire x1="-3" y1="-1.5" x2="-2.75" y2="-1.75" width="0.2032" layer="21" curve="90"/>
<wire x1="-3" y1="-1.5" x2="-3" y2="-1.1" width="0.2032" layer="21"/>
<wire x1="-3" y1="1.1" x2="-3" y2="1.5" width="0.2032" layer="21"/>
<wire x1="3" y1="1.1" x2="3" y2="1.5" width="0.2032" layer="21"/>
<wire x1="3" y1="-1.5" x2="3" y2="-1.1" width="0.2032" layer="21"/>
<wire x1="-1.5" y1="0.75" x2="1.5" y2="0.75" width="0.2032" layer="21"/>
<wire x1="1.5" y1="-0.75" x2="-1.5" y2="-0.75" width="0.2032" layer="21"/>
<wire x1="-1.5" y1="-0.75" x2="-1.5" y2="0.75" width="0.2032" layer="21"/>
<wire x1="1.5" y1="-0.75" x2="1.5" y2="0.75" width="0.2032" layer="21"/>
<wire x1="-2" y1="0" x2="-1" y2="0" width="0.127" layer="51"/>
<wire x1="-1" y1="0" x2="0.1" y2="0.5" width="0.127" layer="51"/>
<wire x1="0.3" y1="0" x2="2" y2="0" width="0.127" layer="51"/>
<smd name="1" x="-3.15" y="0" dx="2.3" dy="1.6" layer="1" rot="R180"/>
<smd name="2" x="3.15" y="0" dx="2.3" dy="1.6" layer="1" rot="R180"/>
<text x="0" y="1.905" size="0.6096" layer="25" font="vector" ratio="20" align="bottom-center">&gt;Name</text>
<text x="0" y="-1.905" size="0.6096" layer="27" font="vector" ratio="20" align="top-center">&gt;Value</text>
</package>
</packages>
<packages3d>
<package3d name="TACTILE_SWITCH_SMD_6.0X3.5MM" urn="urn:adsk.eagle:package:40165/1" type="box" library_version="1">
<description>Momentary Switch (Pushbutton) - SPST - SMD, 6.0 x 3.5 mm
Normally-open (NO) SPST momentary switches (buttons, pushbuttons).
Datasheet</description>
<packageinstances>
<packageinstance name="TACTILE_SWITCH_SMD_6.0X3.5MM"/>
</packageinstances>
</package3d>
</packages3d>
</library>
<library name="schnake-power-fet">
<description>&lt;b&gt;Power Transistors&lt;/b&gt;&lt;p&gt;
&lt;author&gt;Created by librarian@cadsoft.de&lt;/author&gt;</description>
<packages>
<package name="SO-08" urn="urn:adsk.eagle:footprint:20622/1">
<description>&lt;B&gt;Small Outline Narrow Plastic Gull Wing&lt;/B&gt;&lt;p&gt;
150-mil body, package type SN</description>
<wire x1="-2.9" y1="3.9" x2="2.9" y2="3.9" width="0.1998" layer="39"/>
<wire x1="2.9" y1="3.9" x2="2.9" y2="-3.9" width="0.1998" layer="39"/>
<wire x1="2.9" y1="-3.9" x2="-2.9" y2="-3.9" width="0.1998" layer="39"/>
<wire x1="-2.9" y1="-3.9" x2="-2.9" y2="3.9" width="0.1998" layer="39"/>
<wire x1="2.4" y1="1.9" x2="2.4" y2="-1.4" width="0.2032" layer="51"/>
<wire x1="2.4" y1="-1.4" x2="2.4" y2="-1.9" width="0.2032" layer="51"/>
<wire x1="2.4" y1="-1.9" x2="-2.4" y2="-1.9" width="0.2032" layer="51"/>
<wire x1="-2.4" y1="-1.9" x2="-2.4" y2="-1.4" width="0.2032" layer="51"/>
<wire x1="-2.4" y1="-1.4" x2="-2.4" y2="1.9" width="0.2032" layer="51"/>
<wire x1="-2.4" y1="1.9" x2="2.4" y2="1.9" width="0.2032" layer="51"/>
<wire x1="2.4" y1="-1.4" x2="-2.4" y2="-1.4" width="0.2032" layer="51"/>
<smd name="2" x="-0.635" y="-2.6" dx="0.6" dy="2.2" layer="1"/>
<smd name="7" x="-0.635" y="2.6" dx="0.6" dy="2.2" layer="1"/>
<smd name="1" x="-1.905" y="-2.6" dx="0.6" dy="2.2" layer="1"/>
<smd name="3" x="0.635" y="-2.6" dx="0.6" dy="2.2" layer="1"/>
<smd name="4" x="1.905" y="-2.6" dx="0.6" dy="2.2" layer="1"/>
<smd name="8" x="-1.905" y="2.6" dx="0.6" dy="2.2" layer="1"/>
<smd name="6" x="0.635" y="2.6" dx="0.6" dy="2.2" layer="1"/>
<smd name="5" x="1.905" y="2.6" dx="0.6" dy="2.2" layer="1"/>
<text x="-2.667" y="-1.905" size="1.27" layer="25" rot="R90">&gt;NAME</text>
<text x="3.937" y="-1.905" size="1.27" layer="27" rot="R90">&gt;VALUE</text>
<text x="-1.905" y="-0.635" size="0.4064" layer="48">IPC SO8</text>
<text x="-1.905" y="0.365" size="0.3048" layer="48">JEDEC MS-012 AA</text>
<rectangle x1="-2.1501" y1="-3.1001" x2="-1.6599" y2="-2" layer="51"/>
<rectangle x1="-0.8801" y1="-3.1001" x2="-0.3899" y2="-2" layer="51"/>
<rectangle x1="0.3899" y1="-3.1001" x2="0.8801" y2="-2" layer="51"/>
<rectangle x1="1.6599" y1="-3.1001" x2="2.1501" y2="-2" layer="51"/>
<rectangle x1="1.6599" y1="2" x2="2.1501" y2="3.1001" layer="51"/>
<rectangle x1="0.3899" y1="2" x2="0.8801" y2="3.1001" layer="51"/>
<rectangle x1="-0.8801" y1="2" x2="-0.3899" y2="3.1001" layer="51"/>
<rectangle x1="-2.1501" y1="2" x2="-1.6599" y2="3.1001" layer="51"/>
<rectangle x1="-1" y1="-1" x2="1" y2="1" layer="35"/>
</package>
</packages>
<packages3d>
<package3d name="SO-08" urn="urn:adsk.eagle:package:20804/2" type="model">
<description>Small Outline Narrow Plastic Gull Wing
150-mil body, package type SN</description>
<packageinstances>
<packageinstance name="SO-08"/>
</packageinstances>
</package3d>
</packages3d>
</library>
<library name="esp32">
<packages>
<package name="ESP-WROOM-32">
<smd name="1" x="7.7" y="9" dx="0.9" dy="1.5" layer="1"/>
<smd name="2" x="6.43" y="9" dx="0.9" dy="1.5" layer="1"/>
<smd name="3" x="5.16" y="9" dx="0.9" dy="1.5" layer="1"/>
<smd name="4" x="3.89" y="9" dx="0.9" dy="1.5" layer="1"/>
<smd name="5" x="2.62" y="9" dx="0.9" dy="1.5" layer="1"/>
<smd name="6" x="1.35" y="9" dx="0.9" dy="1.5" layer="1"/>
<smd name="7" x="0.08" y="9" dx="0.9" dy="1.5" layer="1"/>
<smd name="8" x="-1.19" y="9" dx="0.9" dy="1.5" layer="1"/>
<smd name="9" x="-2.46" y="9" dx="0.9" dy="1.5" layer="1"/>
<smd name="10" x="-3.73" y="9" dx="0.9" dy="1.5" layer="1"/>
<smd name="11" x="-5" y="9" dx="0.9" dy="1.5" layer="1"/>
<smd name="12" x="-6.27" y="9" dx="0.9" dy="1.5" layer="1"/>
<smd name="13" x="-7.54" y="9" dx="0.9" dy="1.5" layer="1"/>
<smd name="14" x="-8.81" y="9" dx="0.9" dy="1.5" layer="1"/>
<smd name="15" x="-10.3" y="5.715" dx="0.9" dy="1.5" layer="1" rot="R90"/>
<smd name="16" x="-10.3" y="4.445" dx="0.9" dy="1.5" layer="1" rot="R90"/>
<smd name="17" x="-10.3" y="3.175" dx="0.9" dy="1.5" layer="1" rot="R90"/>
<smd name="18" x="-10.3" y="1.905" dx="0.9" dy="1.5" layer="1" rot="R90"/>
<smd name="19" x="-10.3" y="0.635" dx="0.9" dy="1.5" layer="1" rot="R90"/>
<smd name="20" x="-10.3" y="-0.635" dx="0.9" dy="1.5" layer="1" rot="R90"/>
<smd name="21" x="-10.3" y="-1.905" dx="0.9" dy="1.5" layer="1" rot="R90"/>
<smd name="22" x="-10.3" y="-3.175" dx="0.9" dy="1.5" layer="1" rot="R90"/>
<smd name="23" x="-10.3" y="-4.445" dx="0.9" dy="1.5" layer="1" rot="R90"/>
<smd name="24" x="-10.3" y="-5.715" dx="0.9" dy="1.5" layer="1" rot="R90"/>
<smd name="25" x="-8.81" y="-9" dx="0.9" dy="1.5" layer="1"/>
<smd name="26" x="-7.54" y="-9" dx="0.9" dy="1.5" layer="1"/>
<smd name="27" x="-6.27" y="-9" dx="0.9" dy="1.5" layer="1"/>
<smd name="28" x="-5" y="-9" dx="0.9" dy="1.5" layer="1"/>
<smd name="29" x="-3.73" y="-9" dx="0.9" dy="1.5" layer="1"/>
<smd name="30" x="-2.46" y="-9" dx="0.9" dy="1.5" layer="1"/>
<smd name="31" x="-1.19" y="-9" dx="0.9" dy="1.5" layer="1"/>
<smd name="32" x="0.08" y="-9" dx="0.9" dy="1.5" layer="1"/>
<smd name="33" x="1.35" y="-9" dx="0.9" dy="1.5" layer="1"/>
<smd name="34" x="2.62" y="-9" dx="0.9" dy="1.5" layer="1"/>
<smd name="35" x="3.89" y="-9" dx="0.9" dy="1.5" layer="1"/>
<smd name="36" x="5.16" y="-9" dx="0.9" dy="1.5" layer="1"/>
<smd name="37" x="6.43" y="-9" dx="0.9" dy="1.5" layer="1"/>
<smd name="38" x="7.7" y="-9" dx="0.9" dy="1.5" layer="1"/>
<smd name="GND" x="0" y="0" dx="6" dy="6" layer="1"/>
<wire x1="-10.427" y1="6.35" x2="-10.427" y2="9.127" width="0.2032" layer="21"/>
<wire x1="-10.427" y1="9.127" x2="-9.4" y2="9.127" width="0.2032" layer="21"/>
<wire x1="-10.427" y1="-6.35" x2="-10.427" y2="-9.127" width="0.2032" layer="21"/>
<wire x1="-10.427" y1="-9.127" x2="-9.4" y2="-9.127" width="0.2032" layer="21"/>
<text x="-7.76" y="0" size="0.8128" layer="25" rot="R90" align="center">&gt;Name</text>
<text x="-6.49" y="0" size="0.8128" layer="27" rot="R90" align="center">&gt;Value</text>
<wire x1="8.311" y1="9.127" x2="15.327" y2="9.127" width="0.2032" layer="21"/>
<wire x1="8.311" y1="-9.127" x2="15.327" y2="-9.127" width="0.2032" layer="21"/>
<wire x1="15.327" y1="9.127" x2="15.327" y2="-9.127" width="0.2032" layer="21"/>
<polygon width="0.127" layer="39">
<vertex x="8.89" y="11.43"/>
<vertex x="17.78" y="11.43"/>
<vertex x="17.78" y="-11.43"/>
<vertex x="8.89" y="-11.43"/>
</polygon>
<polygon width="0.127" layer="40">
<vertex x="8.89" y="11.43"/>
<vertex x="17.78" y="11.43"/>
<vertex x="17.78" y="-11.43"/>
<vertex x="8.89" y="-11.43"/>
</polygon>
<polygon width="0.127" layer="41">
<vertex x="8.89" y="11.43"/>
<vertex x="17.78" y="11.43"/>
<vertex x="17.78" y="-11.43"/>
<vertex x="8.89" y="-11.43"/>
</polygon>
<polygon width="0.127" layer="42">
<vertex x="8.89" y="11.43"/>
<vertex x="17.78" y="11.43"/>
<vertex x="17.78" y="-11.43"/>
<vertex x="8.89" y="-11.43"/>
</polygon>
<polygon width="0.127" layer="43">
<vertex x="8.89" y="11.43"/>
<vertex x="17.78" y="11.43"/>
<vertex x="17.78" y="-11.43"/>
<vertex x="8.89" y="-11.43"/>
</polygon>
</package>
</packages>
</library>
<library name="SparkFun-Sensors" urn="urn:adsk.eagle:library:534">
<description>&lt;h3&gt;SparkFun Sensors&lt;/h3&gt;
This library contains sensors- accelerometers, gyros, compasses, magnetometers, light sensors, imagers, temp sensors, etc.
&lt;br&gt;
&lt;br&gt;
We've spent an enormous amount of time creating and checking these footprints and parts, but it is &lt;b&gt; the end user's responsibility&lt;/b&gt; to ensure correctness and suitablity for a given componet or application. 
&lt;br&gt;
&lt;br&gt;If you enjoy using this library, please buy one of our products at &lt;a href=" www.sparkfun.com"&gt;SparkFun.com&lt;/a&gt;.
&lt;br&gt;
&lt;br&gt;
&lt;b&gt;Licensing:&lt;/b&gt; Creative Commons ShareAlike 4.0 International - https://creativecommons.org/licenses/by-sa/4.0/ 
&lt;br&gt;
&lt;br&gt;
You are welcome to use this library for commercial purposes. For attribution, we ask that when you begin to sell your device using our footprint, you email us with a link to the product being sold. We want bragging rights that we helped (in a very small part) to create your 8th world wonder. We would like the opportunity to feature your device on our homepage.</description>
<packages>
<package name="TO-92-AMMO" urn="urn:adsk.eagle:footprint:39884/1" library_version="1">
<description>&lt;h3&gt;TO-92 3-Pin PTH AMMO package&lt;/h3&gt;
&lt;p&gt;&lt;a href=""&gt;Datasheet&lt;/a&gt;&lt;/p&gt;
&lt;p&gt;Specifications:
&lt;ul&gt;
&lt;li&gt;Pin Count: 3&lt;/li&gt;
&lt;li&gt;Dimensions:  3.68 x 4.83 x 4.83 mm&lt;/li&gt;
&lt;li&gt;Pitch: 2.54 mm&lt;/li&gt;
&lt;/ul&gt;
&lt;p&gt;Devices Using:&lt;/p&gt;
&lt;ul&gt;
&lt;li&gt;DS18B20&lt;/li&gt;
&lt;/ul&gt;</description>
<wire x1="-2.0946" y1="-1.651" x2="-0.7863" y2="2.5485" width="0.2032" layer="21" curve="-111.098957" cap="flat"/>
<wire x1="0.7863" y1="2.5484" x2="2.0945" y2="-1.651" width="0.2032" layer="21" curve="-111.09954" cap="flat"/>
<wire x1="-2.0945" y1="-1.651" x2="2.0945" y2="-1.651" width="0.2032" layer="21"/>
<wire x1="-0.635" y1="2.54" x2="0.635" y2="2.54" width="0.2032" layer="21" curve="-25.057615"/>
<wire x1="0.635" y1="2.54" x2="1.905" y2="1.905" width="0.2032" layer="21" curve="-28.072487"/>
<wire x1="-1.905" y1="1.905" x2="0.635" y2="2.54" width="0.2032" layer="21" curve="-53.130102"/>
<pad name="3" x="2.54" y="0" drill="0.8128" diameter="1.8796"/>
<pad name="2" x="0" y="0" drill="0.8128" diameter="1.8796"/>
<pad name="1" x="-2.54" y="0" drill="0.8128" diameter="1.8796"/>
<text x="0" y="-1.778" size="0.6096" layer="25" font="vector" ratio="20" rot="R180" align="bottom-center">&gt;NAME</text>
<text x="0" y="2.794" size="0.6096" layer="27" font="vector" ratio="20" rot="R180" align="top-center">&gt;VALUE</text>
</package>
</packages>
<packages3d>
<package3d name="TO-92-AMMO" urn="urn:adsk.eagle:package:39971/1" type="box" library_version="1">
<description>TO-92 3-Pin PTH AMMO package
Datasheet
Specifications:

Pin Count: 3
Dimensions:  3.68 x 4.83 x 4.83 mm
Pitch: 2.54 mm

Devices Using:

DS18B20
</description>
<packageinstances>
<packageinstance name="TO-92-AMMO"/>
</packageinstances>
</package3d>
</packages3d>
</library>
</libraries>
<attributes>
</attributes>
<variantdefs>
</variantdefs>
<classes>
<class number="0" name="default" width="0" drill="0">
</class>
</classes>
<designrules name="default">
<description language="de">&lt;b&gt;EAGLE Design Rules&lt;/b&gt;
&lt;p&gt;
Die Standard-Design-Rules sind so gewählt, dass sie für 
die meisten Anwendungen passen. Sollte ihre Platine 
besondere Anforderungen haben, treffen Sie die erforderlichen
Einstellungen hier und speichern die Design Rules unter 
einem neuen Namen ab.</description>
<description language="en">&lt;b&gt;EAGLE Design Rules&lt;/b&gt;
&lt;p&gt;
The default Design Rules have been set to cover
a wide range of applications. Your particular design
may have different requirements, so please make the
necessary adjustments and save your customized
design rules under a new name.</description>
<param name="layerSetup" value="(1*16)"/>
<param name="mtCopper" value="0.035mm 0.035mm 0.035mm 0.035mm 0.035mm 0.035mm 0.035mm 0.035mm 0.035mm 0.035mm 0.035mm 0.035mm 0.035mm 0.035mm 0.035mm 0.035mm"/>
<param name="mtIsolate" value="1.5mm 0.15mm 0.2mm 0.15mm 0.2mm 0.15mm 0.2mm 0.15mm 0.2mm 0.15mm 0.2mm 0.15mm 0.2mm 0.15mm 0.2mm"/>
<param name="mdWireWire" value="6mil"/>
<param name="mdWirePad" value="6mil"/>
<param name="mdWireVia" value="6mil"/>
<param name="mdPadPad" value="6mil"/>
<param name="mdPadVia" value="6mil"/>
<param name="mdViaVia" value="6mil"/>
<param name="mdSmdPad" value="6mil"/>
<param name="mdSmdVia" value="6mil"/>
<param name="mdSmdSmd" value="6mil"/>
<param name="mdViaViaSameLayer" value="6mil"/>
<param name="mnLayersViaInSmd" value="2"/>
<param name="mdCopperDimension" value="40mil"/>
<param name="mdDrill" value="6mil"/>
<param name="mdSmdStop" value="0mil"/>
<param name="msWidth" value="6mil"/>
<param name="msDrill" value="0.35mm"/>
<param name="msMicroVia" value="9.99mm"/>
<param name="msBlindViaRatio" value="0.5"/>
<param name="rvPadTop" value="0.25"/>
<param name="rvPadInner" value="0.25"/>
<param name="rvPadBottom" value="0.25"/>
<param name="rvViaOuter" value="0.25"/>
<param name="rvViaInner" value="0.25"/>
<param name="rvMicroViaOuter" value="0.25"/>
<param name="rvMicroViaInner" value="0.25"/>
<param name="rlMinPadTop" value="10mil"/>
<param name="rlMaxPadTop" value="20mil"/>
<param name="rlMinPadInner" value="10mil"/>
<param name="rlMaxPadInner" value="20mil"/>
<param name="rlMinPadBottom" value="10mil"/>
<param name="rlMaxPadBottom" value="20mil"/>
<param name="rlMinViaOuter" value="8mil"/>
<param name="rlMaxViaOuter" value="20mil"/>
<param name="rlMinViaInner" value="8mil"/>
<param name="rlMaxViaInner" value="20mil"/>
<param name="rlMinMicroViaOuter" value="4mil"/>
<param name="rlMaxMicroViaOuter" value="20mil"/>
<param name="rlMinMicroViaInner" value="4mil"/>
<param name="rlMaxMicroViaInner" value="20mil"/>
<param name="psTop" value="-1"/>
<param name="psBottom" value="-1"/>
<param name="psFirst" value="-1"/>
<param name="psElongationLong" value="100"/>
<param name="psElongationOffset" value="100"/>
<param name="mvStopFrame" value="1"/>
<param name="mvCreamFrame" value="0"/>
<param name="mlMinStopFrame" value="4mil"/>
<param name="mlMaxStopFrame" value="4mil"/>
<param name="mlMinCreamFrame" value="0mil"/>
<param name="mlMaxCreamFrame" value="0mil"/>
<param name="mlViaStopLimit" value="0mil"/>
<param name="srRoundness" value="0"/>
<param name="srMinRoundness" value="0mil"/>
<param name="srMaxRoundness" value="0mil"/>
<param name="slThermalIsolate" value="10mil"/>
<param name="slThermalsForVias" value="0"/>
<param name="dpMaxLengthDifference" value="10mm"/>
<param name="dpGapFactor" value="2.5"/>
<param name="checkAngle" value="0"/>
<param name="checkFont" value="1"/>
<param name="checkRestrict" value="1"/>
<param name="checkStop" value="0"/>
<param name="checkValues" value="0"/>
<param name="checkNames" value="1"/>
<param name="checkWireStubs" value="1"/>
<param name="checkPolygonWidth" value="0"/>
<param name="useDiameter" value="13"/>
<param name="maxErrors" value="50"/>
</designrules>
<autorouter>
<pass name="Default">
<param name="RoutingGrid" value="50mil"/>
<param name="AutoGrid" value="1"/>
<param name="Efforts" value="0"/>
<param name="TopRouterVariant" value="1"/>
<param name="tpViaShape" value="round"/>
<param name="PrefDir.1" value="a"/>
<param name="PrefDir.2" value="0"/>
<param name="PrefDir.3" value="0"/>
<param name="PrefDir.4" value="0"/>
<param name="PrefDir.5" value="0"/>
<param name="PrefDir.6" value="0"/>
<param name="PrefDir.7" value="0"/>
<param name="PrefDir.8" value="0"/>
<param name="PrefDir.9" value="0"/>
<param name="PrefDir.10" value="0"/>
<param name="PrefDir.11" value="0"/>
<param name="PrefDir.12" value="0"/>
<param name="PrefDir.13" value="0"/>
<param name="PrefDir.14" value="0"/>
<param name="PrefDir.15" value="0"/>
<param name="PrefDir.16" value="a"/>
<param name="cfVia" value="8"/>
<param name="cfNonPref" value="5"/>
<param name="cfChangeDir" value="2"/>
<param name="cfOrthStep" value="2"/>
<param name="cfDiagStep" value="3"/>
<param name="cfExtdStep" value="0"/>
<param name="cfBonusStep" value="1"/>
<param name="cfMalusStep" value="1"/>
<param name="cfPadImpact" value="4"/>
<param name="cfSmdImpact" value="4"/>
<param name="cfBusImpact" value="0"/>
<param name="cfHugging" value="3"/>
<param name="cfAvoid" value="4"/>
<param name="cfPolygon" value="10"/>
<param name="cfBase.1" value="0"/>
<param name="cfBase.2" value="1"/>
<param name="cfBase.3" value="1"/>
<param name="cfBase.4" value="1"/>
<param name="cfBase.5" value="1"/>
<param name="cfBase.6" value="1"/>
<param name="cfBase.7" value="1"/>
<param name="cfBase.8" value="1"/>
<param name="cfBase.9" value="1"/>
<param name="cfBase.10" value="1"/>
<param name="cfBase.11" value="1"/>
<param name="cfBase.12" value="1"/>
<param name="cfBase.13" value="1"/>
<param name="cfBase.14" value="1"/>
<param name="cfBase.15" value="1"/>
<param name="cfBase.16" value="0"/>
<param name="mnVias" value="20"/>
<param name="mnSegments" value="9999"/>
<param name="mnExtdSteps" value="9999"/>
<param name="mnRipupLevel" value="10"/>
<param name="mnRipupSteps" value="100"/>
<param name="mnRipupTotal" value="100"/>
</pass>
<pass name="Follow-me" refer="Default" active="yes">
</pass>
<pass name="Busses" refer="Default" active="yes">
<param name="cfNonPref" value="4"/>
<param name="cfBusImpact" value="4"/>
<param name="cfHugging" value="0"/>
<param name="mnVias" value="0"/>
</pass>
<pass name="Route" refer="Default" active="yes">
</pass>
<pass name="Optimize1" refer="Default" active="yes">
<param name="cfVia" value="99"/>
<param name="cfExtdStep" value="10"/>
<param name="cfHugging" value="1"/>
<param name="mnExtdSteps" value="1"/>
<param name="mnRipupLevel" value="0"/>
</pass>
<pass name="Optimize2" refer="Optimize1" active="yes">
<param name="cfNonPref" value="0"/>
<param name="cfChangeDir" value="6"/>
<param name="cfExtdStep" value="0"/>
<param name="cfBonusStep" value="2"/>
<param name="cfMalusStep" value="2"/>
<param name="cfPadImpact" value="2"/>
<param name="cfSmdImpact" value="2"/>
<param name="cfHugging" value="0"/>
</pass>
<pass name="Optimize3" refer="Optimize2" active="yes">
<param name="cfChangeDir" value="8"/>
<param name="cfPadImpact" value="0"/>
<param name="cfSmdImpact" value="0"/>
</pass>
<pass name="Optimize4" refer="Optimize3" active="yes">
<param name="cfChangeDir" value="25"/>
</pass>
</autorouter>
<elements>
<element name="12V_IN" library="pinhead" library_urn="urn:adsk.eagle:library:325" package="1X02" package3d_urn="urn:adsk.eagle:package:22435/2" value="" x="91.44" y="29.21" smashed="yes" rot="R180">
<attribute name="NAME" x="94.0562" y="27.3812" size="1.27" layer="25" ratio="10" rot="R180"/>
<attribute name="POPULARITY" value="98" x="73.66" y="76.2" size="1.778" layer="27" rot="R180" display="off"/>
<attribute name="VALUE" x="93.98" y="32.385" size="1.27" layer="27" rot="R180"/>
</element>
<element name="12V_OUT" library="pinhead" library_urn="urn:adsk.eagle:library:325" package="1X02" package3d_urn="urn:adsk.eagle:package:22435/2" value="" x="91.44" y="34.29" smashed="yes" rot="MR0">
<attribute name="NAME" x="94.0562" y="36.1188" size="1.27" layer="26" ratio="10" rot="MR0"/>
<attribute name="POPULARITY" value="98" x="52.07" y="-6.35" size="1.778" layer="28" rot="MR0" display="off"/>
<attribute name="VALUE" x="93.98" y="31.115" size="1.27" layer="28" rot="MR0"/>
</element>
<element name="3V3_IN" library="pinhead" library_urn="urn:adsk.eagle:library:325" package="1X02" package3d_urn="urn:adsk.eagle:package:22435/2" value="" x="53.34" y="68.58" smashed="yes">
<attribute name="NAME" x="50.7238" y="70.4088" size="1.27" layer="25" ratio="10"/>
<attribute name="POPULARITY" value="98" x="100.33" y="27.94" size="1.778" layer="27" display="off"/>
<attribute name="VALUE" x="50.8" y="65.405" size="1.27" layer="27"/>
</element>
<element name="C1" library="resistor" library_urn="urn:adsk.eagle:library:348" package="C050-030X075" package3d_urn="urn:adsk.eagle:package:23640/1" value="" x="91.44" y="21.59" smashed="yes" rot="R180">
<attribute name="NAME" x="94.996" y="19.685" size="1.27" layer="25" ratio="10" rot="R180"/>
<attribute name="VALUE" x="94.996" y="24.638" size="1.27" layer="27" ratio="10" rot="R180"/>
</element>
<element name="C2" library="resistor" library_urn="urn:adsk.eagle:library:348" package="E2,5-7" package3d_urn="urn:adsk.eagle:package:23345/1" value="" x="91.44" y="15.24" smashed="yes" rot="R180">
<attribute name="NAME" x="88.392" y="13.208" size="1.27" layer="25" ratio="10" rot="R180"/>
<attribute name="VALUE" x="88.392" y="18.415" size="1.27" layer="27" ratio="10" rot="R180"/>
</element>
<element name="C3" library="resistor" library_urn="urn:adsk.eagle:library:348" package="C050-030X075" package3d_urn="urn:adsk.eagle:package:23640/1" value="" x="53.34" y="62.23" smashed="yes">
<attribute name="NAME" x="49.784" y="64.135" size="1.27" layer="25" ratio="10"/>
<attribute name="VALUE" x="49.784" y="59.182" size="1.27" layer="27" ratio="10"/>
</element>
<element name="C4" library="resistor" library_urn="urn:adsk.eagle:library:348" package="E2,5-7" package3d_urn="urn:adsk.eagle:package:23345/1" value="" x="53.34" y="55.88" smashed="yes">
<attribute name="NAME" x="56.388" y="57.912" size="1.27" layer="25" ratio="10"/>
<attribute name="VALUE" x="56.388" y="52.705" size="1.27" layer="27" ratio="10"/>
</element>
<element name="FLASH" library="SparkFun-Switches" library_urn="urn:adsk.eagle:library:535" package="TACTILE_SWITCH_SMD_6.0X3.5MM" package3d_urn="urn:adsk.eagle:package:40165/1" value="MOMENTARY-SWITCH-SPST-SMD-6.0X3.5MM" x="30.48" y="11.43" smashed="yes">
<attribute name="NAME" x="30.48" y="13.335" size="0.6096" layer="25" font="vector" ratio="20" align="bottom-center"/>
<attribute name="PROD_ID" value="SWCH-00815" x="68.58" y="-24.13" size="1.778" layer="27" display="off"/>
<attribute name="SF_SKU" value="COM-08229" x="68.58" y="-24.13" size="1.778" layer="27" display="off"/>
<attribute name="VALUE" x="30.48" y="9.525" size="0.6096" layer="27" font="vector" ratio="20" align="top-center"/>
</element>
<element name="LED" library="pinhead" library_urn="urn:adsk.eagle:library:325" package="1X02" package3d_urn="urn:adsk.eagle:package:22435/2" value="" x="91.44" y="6.35" smashed="yes" rot="R180">
<attribute name="NAME" x="94.0562" y="4.5212" size="1.27" layer="25" ratio="10" rot="R180"/>
<attribute name="POPULARITY" value="98" x="67.31" y="53.34" size="1.778" layer="27" rot="R180" display="off"/>
<attribute name="VALUE" x="93.98" y="9.525" size="1.27" layer="27" rot="R180"/>
</element>
<element name="Q1" library="schnake-power-fet" package="SO-08" package3d_urn="urn:adsk.eagle:package:20804/2" value="" x="80.01" y="10.16" smashed="yes" rot="R180">
<attribute name="NAME" x="82.677" y="12.065" size="1.27" layer="25" rot="R270"/>
<attribute name="POPULARITY" value="0" x="33.02" y="15.24" size="1.778" layer="27" rot="R180" display="off"/>
<attribute name="VALUE" x="76.073" y="12.065" size="1.27" layer="27" rot="R270"/>
</element>
<element name="R1" library="resistor" library_urn="urn:adsk.eagle:library:348" package="R1206W" package3d_urn="urn:adsk.eagle:package:23539/2" value="100" x="74.93" y="13.97" smashed="yes" rot="R270">
<attribute name="NAME" x="76.2" y="15.875" size="1.27" layer="25" rot="R270"/>
<attribute name="VALUE" x="72.39" y="15.875" size="1.27" layer="27" rot="R270"/>
</element>
<element name="R2" library="resistor" library_urn="urn:adsk.eagle:library:348" package="R1206W" package3d_urn="urn:adsk.eagle:package:23539/2" value="10k" x="69.85" y="12.7" smashed="yes">
<attribute name="NAME" x="67.945" y="13.97" size="1.27" layer="25"/>
<attribute name="VALUE" x="67.945" y="10.16" size="1.27" layer="27"/>
</element>
<element name="R3" library="resistor" library_urn="urn:adsk.eagle:library:348" package="R1206W" package3d_urn="urn:adsk.eagle:package:23539/2" value="10k" x="35.56" y="16.51" smashed="yes" rot="R180">
<attribute name="NAME" x="37.465" y="15.24" size="1.27" layer="25" rot="R180"/>
<attribute name="VALUE" x="37.465" y="19.05" size="1.27" layer="27" rot="R180"/>
</element>
<element name="R4" library="resistor" library_urn="urn:adsk.eagle:library:348" package="R1206W" package3d_urn="urn:adsk.eagle:package:23539/2" value="10k" x="46.99" y="44.45" smashed="yes">
<attribute name="NAME" x="45.085" y="45.72" size="1.27" layer="25"/>
<attribute name="VALUE" x="45.085" y="41.91" size="1.27" layer="27"/>
</element>
<element name="R5" library="resistor" library_urn="urn:adsk.eagle:library:348" package="R1206W" package3d_urn="urn:adsk.eagle:package:23539/2" value="4k7" x="29.21" y="44.45" smashed="yes">
<attribute name="NAME" x="27.305" y="45.72" size="1.27" layer="25"/>
<attribute name="VALUE" x="27.305" y="41.91" size="1.27" layer="27"/>
</element>
<element name="RESET" library="SparkFun-Switches" library_urn="urn:adsk.eagle:library:535" package="TACTILE_SWITCH_SMD_6.0X3.5MM" package3d_urn="urn:adsk.eagle:package:40165/1" value="MOMENTARY-SWITCH-SPST-SMD-6.0X3.5MM" x="41.91" y="49.53" smashed="yes">
<attribute name="NAME" x="41.91" y="51.435" size="0.6096" layer="25" font="vector" ratio="20" align="bottom-center"/>
<attribute name="PROD_ID" value="SWCH-00815" x="64.77" y="7.62" size="1.778" layer="27" display="off"/>
<attribute name="SF_SKU" value="COM-08229" x="64.77" y="7.62" size="1.778" layer="27" display="off"/>
<attribute name="VALUE" x="41.91" y="47.625" size="0.6096" layer="27" font="vector" ratio="20" align="top-center"/>
</element>
<element name="U1" library="esp32" package="ESP-WROOM-32" value="ESP-WROOM-32" x="43.18" y="31.75" smashed="yes">
<attribute name="NAME" x="35.42" y="31.75" size="0.8128" layer="25" rot="R90" align="center"/>
<attribute name="VALUE" x="36.69" y="31.75" size="0.8128" layer="27" rot="R90" align="center"/>
</element>
<element name="U2" library="SparkFun-Sensors" library_urn="urn:adsk.eagle:library:534" package="TO-92-AMMO" package3d_urn="urn:adsk.eagle:package:39971/1" value="DS18B20" x="29.21" y="53.34" smashed="yes">
<attribute name="NAME" x="29.21" y="51.562" size="0.6096" layer="25" font="vector" ratio="20" rot="R180" align="bottom-center"/>
<attribute name="STORE_ID" value="SEN-00245" x="66.04" y="25.4" size="1.778" layer="27" display="off"/>
<attribute name="VALUE" x="29.21" y="56.134" size="0.6096" layer="27" font="vector" ratio="20" rot="R180" align="top-center"/>
</element>
</elements>
<signals>
<signal name="+12V">
<contactref element="LED" pad="1"/>
<contactref element="C1" pad="1"/>
<contactref element="C2" pad="+"/>
<contactref element="12V_IN" pad="1"/>
<contactref element="12V_OUT" pad="1"/>
<wire x1="92.71" y1="29.21" x2="92.71" y2="34.29" width="0" layer="19" extent="1-1"/>
<wire x1="93.98" y1="21.59" x2="92.71" y2="29.21" width="0" layer="19" extent="1-1"/>
<wire x1="92.71" y1="15.24" x2="93.98" y2="21.59" width="0" layer="19" extent="1-1"/>
<wire x1="92.71" y1="6.35" x2="92.71" y2="15.24" width="0" layer="19" extent="1-1"/>
</signal>
<signal name="+3V3">
<contactref element="3V3_IN" pad="1"/>
<contactref element="R3" pad="1"/>
<contactref element="R4" pad="1"/>
<contactref element="U1" pad="2"/>
<contactref element="U2" pad="3"/>
<contactref element="R5" pad="1"/>
<contactref element="C3" pad="1"/>
<contactref element="C4" pad="+"/>
<wire x1="37.059" y1="16.51" x2="52.07" y2="55.88" width="0" layer="19" extent="1-1"/>
<wire x1="49.61" y1="40.75" x2="37.059" y2="16.51" width="0" layer="19" extent="1-1"/>
<wire x1="52.07" y1="68.58" x2="52.07" y2="55.88" width="0" layer="19" extent="1-1"/>
<wire x1="50.8" y1="62.23" x2="52.07" y2="68.58" width="0" layer="19" extent="1-1"/>
<wire x1="27.711" y1="44.45" x2="49.61" y2="40.75" width="0" layer="19" extent="1-1"/>
<wire x1="45.491" y1="44.45" x2="27.711" y2="44.45" width="0" layer="19" extent="1-1"/>
<wire x1="31.75" y1="53.34" x2="27.711" y2="44.45" width="0" layer="19" extent="1-1"/>
</signal>
<signal name="GND">
<contactref element="3V3_IN" pad="2"/>
<contactref element="R2" pad="1"/>
<contactref element="U1" pad="1"/>
<contactref element="RESET" pad="2"/>
<contactref element="U2" pad="1"/>
<contactref element="U1" pad="38"/>
<contactref element="U1" pad="15"/>
<contactref element="C4" pad="-"/>
<contactref element="C3" pad="2"/>
<contactref element="FLASH" pad="1"/>
<wire x1="55.88" y1="62.23" x2="27.33" y2="11.43" width="0" layer="19" extent="1-1"/>
<wire x1="54.61" y1="68.58" x2="55.88" y2="62.23" width="0" layer="19" extent="1-1"/>
<wire x1="54.61" y1="55.88" x2="55.88" y2="62.23" width="0" layer="19" extent="1-1"/>
<wire x1="32.88" y1="37.465" x2="54.61" y2="55.88" width="0" layer="19" extent="1-1"/>
<wire x1="50.88" y1="40.75" x2="27.33" y2="11.43" width="0" layer="19" extent="1-1"/>
<wire x1="50.88" y1="22.75" x2="50.88" y2="40.75" width="0" layer="19" extent="1-1"/>
<wire x1="68.351" y1="12.7" x2="50.88" y2="22.75" width="0" layer="19" extent="1-1"/>
<wire x1="45.06" y1="49.53" x2="32.88" y2="37.465" width="0" layer="19" extent="1-1"/>
<wire x1="26.67" y1="53.34" x2="45.06" y2="49.53" width="0" layer="19" extent="1-1"/>
</signal>
<signal name="LED-">
<contactref element="Q1" pad="5"/>
<contactref element="Q1" pad="6"/>
<contactref element="Q1" pad="7"/>
<contactref element="Q1" pad="8"/>
<contactref element="LED" pad="2"/>
<wire x1="81.915" y1="7.56" x2="90.17" y2="6.35" width="0" layer="19" extent="1-1"/>
<wire x1="80.645" y1="7.56" x2="81.915" y2="7.56" width="0" layer="19" extent="1-1"/>
<wire x1="79.375" y1="7.56" x2="80.645" y2="7.56" width="0" layer="19" extent="1-1"/>
<wire x1="78.105" y1="7.56" x2="79.375" y2="7.56" width="0" layer="19" extent="1-1"/>
</signal>
<signal name="PWM1_MOS">
<contactref element="R1" pad="2"/>
<contactref element="Q1" pad="4"/>
<contactref element="R2" pad="2"/>
<wire x1="74.93" y1="12.471" x2="78.105" y2="12.76" width="0" layer="19" extent="1-1"/>
<wire x1="71.349" y1="12.7" x2="74.93" y2="12.471" width="0" layer="19" extent="1-1"/>
</signal>
<signal name="FLASH">
<contactref element="U1" pad="25"/>
<contactref element="FLASH" pad="2"/>
<contactref element="R3" pad="2"/>
<wire x1="34.061" y1="16.51" x2="33.63" y2="11.43" width="0" layer="19" extent="1-1"/>
<wire x1="34.37" y1="22.75" x2="34.061" y2="16.51" width="0" layer="19" extent="1-1"/>
</signal>
<signal name="RESET">
<contactref element="R4" pad="2"/>
<contactref element="U1" pad="3"/>
<contactref element="RESET" pad="1"/>
<wire x1="48.489" y1="44.45" x2="48.34" y2="40.75" width="0" layer="19" extent="1-1"/>
<wire x1="38.76" y1="49.53" x2="48.489" y2="44.45" width="0" layer="19" extent="1-1"/>
</signal>
<signal name="PWM1">
<contactref element="U1" pad="30"/>
<contactref element="R1" pad="1"/>
<wire x1="40.72" y1="22.75" x2="74.93" y2="15.469" width="0" layer="19" extent="1-1"/>
</signal>
<signal name="DS18_DATA">
<contactref element="U2" pad="2"/>
<contactref element="R5" pad="2"/>
<contactref element="U1" pad="10"/>
<wire x1="30.709" y1="44.45" x2="39.45" y2="40.75" width="0" layer="19" extent="1-1"/>
<wire x1="29.21" y1="53.34" x2="30.709" y2="44.45" width="0" layer="19" extent="1-1"/>
</signal>
<signal name="AGND">
<contactref element="12V_IN" pad="2"/>
<contactref element="Q1" pad="1"/>
<contactref element="Q1" pad="2"/>
<contactref element="Q1" pad="3"/>
<contactref element="C1" pad="2"/>
<contactref element="C2" pad="-"/>
<contactref element="12V_OUT" pad="2"/>
<wire x1="90.17" y1="29.21" x2="90.17" y2="34.29" width="0" layer="19" extent="1-1"/>
<wire x1="88.9" y1="21.59" x2="90.17" y2="29.21" width="0" layer="19" extent="1-1"/>
<wire x1="90.17" y1="15.24" x2="88.9" y2="21.59" width="0" layer="19" extent="1-1"/>
<wire x1="81.915" y1="12.76" x2="90.17" y2="15.24" width="0" layer="19" extent="1-1"/>
<wire x1="80.645" y1="12.76" x2="81.915" y2="12.76" width="0" layer="19" extent="1-1"/>
<wire x1="79.375" y1="12.76" x2="80.645" y2="12.76" width="0" layer="19" extent="1-1"/>
</signal>
</signals>
<mfgpreviewcolors>
<mfgpreviewcolor name="soldermaskcolor" color="0xC8008000"/>
<mfgpreviewcolor name="silkscreencolor" color="0xFFFEFEFE"/>
<mfgpreviewcolor name="backgroundcolor" color="0xFF282828"/>
<mfgpreviewcolor name="coppercolor" color="0xFFFFBF00"/>
<mfgpreviewcolor name="substratecolor" color="0xFF786E46"/>
</mfgpreviewcolors>
</board>
</drawing>
<compatibility>
<note version="8.2" severity="warning">
Since Version 8.2, EAGLE supports online libraries. The ids
of those online libraries will not be understood (or retained)
with this version.
</note>
<note version="8.3" severity="warning">
Since Version 8.3, EAGLE supports URNs for individual library
assets (packages, symbols, and devices). The URNs of those assets
will not be understood (or retained) with this version.
</note>
<note version="8.3" severity="warning">
Since Version 8.3, EAGLE supports the association of 3D packages
with devices in libraries, schematics, and board files. Those 3D
packages will not be understood (or retained) with this version.
</note>
</compatibility>
</eagle>
